# WaveFront *.obj file (generated by CINEMA 4D)

mtllib ./Desk.mtl

v 96.94200134277344 0 -61.4375
v 96.94200134277344 0 31.40329933166504
v 47.09170150756836 0 -61.42190170288086
v 47.0275993347168 0 31.40329933166504
v 53.45130157470703 40.92549896240234 -64.22160339355469
v 53.46829986572266 41.85049819946289 -65.21080017089844
v 53.84199905395508 43.54029846191406 -64.22129821777344
v 53.74349975585938 44.62300109863281 -65.21080017089844
v 54.43870162963867 45.83060073852539 -64.118896484375
v 54.17350006103516 47.12110137939453 -65.08779907226562
v 55.13690185546875 47.03260040283203 -63.47549819946289
v 54.97069931030273 48.92020034790039 -64.17430114746094
v 56.16310119628906 49.6072998046875 -62.5172004699707
v 55.96200180053711 47.37799835205078 -62.5172004699707
v 54.71939849853516 27.63890075683594 -62.5172004699707
v 54.16699981689453 27.92740058898926 -63.47330093383789
v 54.60160064697266 30.93790054321289 -62.5172004699707
v 54.21659851074219 31.04599952697754 -62.90560150146484
v 53.57070159912109 30.06859970092773 -64.73059844970703
v 53.66270065307617 32.32379913330078 -63.79349899291992
v 53.27339935302734 33.53310012817383 -65.21080017089844
v 53.34299850463867 35.01409912109375 -64.22219848632812
v 53.23609924316406 36.30559921264648 -65.21080017089844
v 53.29790115356445 37.13140106201172 -64.22129821777344
v 48.54520034790039 66.13289642333984 -61.95880126953125
v 48.54520034790039 11.11330032348633 -61.95880126953125
v 48.54380035400391 66.122802734375 -61.4182014465332
v 48.54380035400391 11.12339973449707 -61.4182014465332
v 48.77180099487305 66.3594970703125 -61.95880126953125
v 48.78200149536133 66.36100006103516 -61.4182014465332
v 95.00129699707031 10.88669967651367 -61.95880126953125
v 48.77180099487305 10.88669967651367 -61.95880126953125
v 94.22329711914062 11.74120044708252 -62.52090072631836
v 49.54990005493164 11.74120044708252 -62.52090072631836
v 49.38940048217773 11.91619968414307 -62.52090072631836
v 49.38940048217773 65.33000183105469 -62.52090072631836
v 49.54990005493164 65.50499725341797 -62.52090072631836
v 48.78200149536133 10.88519954681396 -61.4182014465332
v 94.99120330810547 10.88519954681396 -61.4182014465332
v 95.22789764404297 11.11330032348633 -61.95880126953125
v 95.22940063476562 11.12339973449707 -61.4182014465332
v 94.99120330810547 66.36100006103516 -61.4182014465332
v 95.00129699707031 66.3594970703125 -61.95880126953125
v 94.22329711914062 65.50499725341797 -62.52090072631836
v 95.22789764404297 66.13289642333984 -61.95880126953125
v 94.38379669189453 65.33000183105469 -62.52090072631836
v 94.38379669189453 11.91619968414307 -62.52090072631836
v 95.22940063476562 66.122802734375 -61.4182014465332
v 46.27420043945312 66.09390258789062 -61.40670013427734
v 46.0359001159668 66.33209991455078 -61.40670013427734
v 46.27420043945312 57.1781005859375 -61.40670013427734
v 46.0359001159668 56.93989944458008 -61.40670013427734
v 0.07959999889135 66.09390258789062 -61.40670013427734
v 0.07959999889135 57.1781005859375 -61.40670013427734
v 0.31769999861717 66.33209991455078 -61.40670013427734
v 0.31769999861717 56.93989944458008 -61.40670013427734
v -48.66279983520508 23.91340065002441 -61.40670013427734
v -48.89419937133789 24.14480018615723 -61.40670013427734
v -48.66279983520508 11.15709972381592 -61.40670013427734
v -48.89419937133789 10.92570018768311 -61.40670013427734
v -95.34410095214844 23.91340065002441 -61.40670013427734
v -95.34410095214844 11.15709972381592 -61.40670013427734
v -95.11270141601562 24.14480018615723 -61.40670013427734
v -95.11270141601562 10.92570018768311 -61.40670013427734
v -48.66279983520508 37.95109939575195 -61.40670013427734
v -48.89419937133789 38.18239974975586 -61.40670013427734
v -48.66279983520508 25.19470024108887 -61.40670013427734
v -48.89419937133789 24.96339988708496 -61.40670013427734
v -95.34410095214844 37.95109939575195 -61.40670013427734
v -95.34410095214844 25.19470024108887 -61.40670013427734
v -95.11270141601562 38.18239974975586 -61.40670013427734
v -95.11270141601562 24.96339988708496 -61.40670013427734
v -48.66279983520508 52.06829833984375 -61.40670013427734
v -48.89419937133789 52.29970169067383 -61.40670013427734
v -48.66279983520508 39.3120002746582 -61.40670013427734
v -48.89419937133789 39.0806999206543 -61.40670013427734
v -95.34410095214844 52.06829833984375 -61.40670013427734
v -95.34410095214844 39.3120002746582 -61.40670013427734
v -95.11270141601562 52.29970169067383 -61.40670013427734
v -95.11270141601562 39.0806999206543 -61.40670013427734
v -96.74800109863281 0 31.40329933166504
v -96.74800109863281 0 -61.4375
v -47.24069976806641 0 31.40329933166504
v -47.25270080566406 0 -61.4197998046875
v -96.72429656982422 67.78459930419922 31.37960052490234
v -96.72429656982422 9.49580001831055 31.37960052490234
v -47.26449966430664 67.78459930419922 31.37960052490234
v -47.26449966430664 9.49580001831055 31.37960052490234
v 17.36190032958984 59.90940093994141 -63.08480072021484
v 17.3607006072998 59.81980133056641 -62.51910018920898
v 17.36190032958984 60.57429885864258 -64
v 17.36190032958984 63.4807014465332 -62.51910018920898
v 17.36190032958984 63.3911018371582 -63.08480072021484
v 17.36190032958984 62.72620010375977 -64
v 17.36190032958984 61.65029907226562 -64.347900390625
v 18.00399971008301 59.81980133056641 -62.51910018920898
v 18.00399971008301 59.90940093994141 -63.08480072021484
v 18.00399971008301 61.62030029296875 -62.51910018920898
v 18.00399971008301 60.57429885864258 -64
v 18.00399971008301 61.62030029296875 -64.34799957275391
v 28.54159927368164 61.62030029296875 -62.51910018920898
v 28.54159927368164 61.62030029296875 -64.34799957275391
v -18.31649971008301 61.88019943237305 -62.51910018920898
v -28.85409927368164 61.88019943237305 -62.51910018920898
v -18.31649971008301 61.88019943237305 -64.34799957275391
v -28.85409927368164 61.88019943237305 -64.34799957275391
v -17.67460060119629 60.83430099487305 -64
v -17.67449951171875 61.91019821166992 -64.347900390625
v -17.67460060119629 60.1693000793457 -63.08480072021484
v -17.67329978942871 60.0797004699707 -62.51910018920898
v -17.67460060119629 63.65110015869141 -63.08480072021484
v -17.67460060119629 63.74069976806641 -62.51910018920898
v -17.67460060119629 62.98609924316406 -64
v 29.18350028991699 62.72620010375977 -64
v 29.18350028991699 63.3911018371582 -63.08480072021484
v 29.1835994720459 61.65029907226562 -64.347900390625
v 29.18350028991699 60.57429885864258 -64
v 29.18350028991699 59.90940093994141 -63.08480072021484
v 29.18479919433594 59.81980133056641 -62.51910018920898
v 29.18350028991699 63.4807014465332 -62.51910018920898
v -18.31649971008301 60.0797004699707 -62.51910018920898
v -18.31649971008301 60.1693000793457 -63.08480072021484
v -18.31649971008301 60.83430099487305 -64
v -29.49620056152344 63.74069976806641 -62.51910018920898
v -29.49620056152344 63.65110015869141 -63.08480072021484
v -29.49620056152344 62.98609924316406 -64
v -29.49620056152344 61.91019821166992 -64.347900390625
v -29.49620056152344 60.83430099487305 -64
v -28.85409927368164 60.83430099487305 -64
v -28.85409927368164 60.1693000793457 -63.08480072021484
v -29.49620056152344 60.1693000793457 -63.08480072021484
v -28.85409927368164 60.0797004699707 -62.51910018920898
v -29.49740028381348 60.0797004699707 -62.51910018920898
v -77.90840148925781 15.75839996337891 -63.08480072021484
v -77.90969848632812 15.66880035400391 -62.51910018920898
v -77.90840148925781 16.42329978942871 -64
v -77.90840148925781 19.3297004699707 -62.51910018920898
v -77.90840148925781 19.2401008605957 -63.08480072021484
v -77.90840148925781 18.57519912719727 -64
v -77.90840148925781 17.49930000305176 -64.347900390625
v -77.26640319824219 15.66880035400391 -62.51910018920898
v -77.26640319824219 15.75839996337891 -63.08480072021484
v -77.26640319824219 17.46929931640625 -62.51910018920898
v -77.26640319824219 16.42329978942871 -64
v -77.26640319824219 17.46929931640625 -64.34799957275391
v -66.72879791259766 17.46929931640625 -62.51910018920898
v -66.72879791259766 17.46929931640625 -64.34799957275391
v -77.26640319824219 29.68440055847168 -62.51910018920898
v -77.26640319824219 29.77400016784668 -63.08480072021484
v -77.26640319824219 31.48489952087402 -62.51910018920898
v -77.26640319824219 30.43899917602539 -64
v -77.26640319824219 31.48489952087402 -64.34799957275391
v -66.72879791259766 31.48489952087402 -62.51910018920898
v -66.72879791259766 31.48489952087402 -64.34799957275391
v -66.08689880371094 30.43899917602539 -64
v -66.08689880371094 31.51490020751953 -64.347900390625
v -66.08689880371094 29.77400016784668 -63.08480072021484
v -66.08560180664062 29.68440055847168 -62.51910018920898
v -66.08689880371094 33.25579833984375 -63.08480072021484
v -66.08689880371094 33.34540176391602 -62.51910018920898
v -66.08689880371094 32.59090042114258 -64
v -66.08689880371094 18.57519912719727 -64
v -66.08689880371094 19.2401008605957 -63.08480072021484
v -66.08689880371094 17.49930000305176 -64.347900390625
v -66.08689880371094 16.42329978942871 -64
v -66.08689880371094 15.75839996337891 -63.08480072021484
v -66.08560180664062 15.66880035400391 -62.51910018920898
v -66.08689880371094 19.3297004699707 -62.51910018920898
v -66.72879791259766 29.68440055847168 -62.51910018920898
v -66.72879791259766 29.77400016784668 -63.08480072021484
v -66.72879791259766 30.43899917602539 -64
v -77.90840148925781 32.59090042114258 -64
v -77.90840148925781 31.51490020751953 -64.347900390625
v -77.90840148925781 30.43899917602539 -64
v -77.90840148925781 29.77400016784668 -63.08480072021484
v -77.90969848632812 29.68440055847168 -62.51910018920898
v -77.90840148925781 33.25579833984375 -63.08480072021484
v -77.90840148925781 33.34540176391602 -62.51910018920898
v -77.90840148925781 43.81209945678711 -63.08480072021484
v -77.90969848632812 43.72249984741211 -62.51910018920898
v -77.90840148925781 44.47700119018555 -64
v -77.90840148925781 47.38339996337891 -62.51910018920898
v -77.90840148925781 47.29389953613281 -63.08480072021484
v -77.90840148925781 46.62889862060547 -64
v -77.90840148925781 45.55300140380859 -64.347900390625
v -77.26640319824219 43.72249984741211 -62.51910018920898
v -77.26640319824219 43.81209945678711 -63.08480072021484
v -77.26640319824219 45.52299880981445 -62.51910018920898
v -77.26640319824219 44.47700119018555 -64
v -77.26640319824219 45.52299880981445 -64.34799957275391
v -66.72879791259766 45.52299880981445 -62.51910018920898
v -66.72879791259766 45.52299880981445 -64.34799957275391
v -48.67950057983398 66.09850311279297 -61.40670013427734
v -48.90399932861328 66.322998046875 -61.40670013427734
v -48.67950057983398 53.35200119018555 -61.40670013427734
v -48.90399932861328 53.12749862670898 -61.40670013427734
v -95.33730316162109 66.09850311279297 -61.40670013427734
v -95.33730316162109 53.35200119018555 -61.40670013427734
v -95.11270141601562 66.322998046875 -61.40670013427734
v -95.11270141601562 53.12749862670898 -61.40670013427734
v -77.90840148925781 57.99800109863281 -63.08480072021484
v -77.90969848632812 57.90840148925781 -62.51910018920898
v -77.90840148925781 58.66299819946289 -64
v -77.90840148925781 61.56940078735352 -62.51910018920898
v -77.90840148925781 61.47980117797852 -63.08480072021484
v -77.90840148925781 60.81480026245117 -64
v -77.90840148925781 59.73889923095703 -64.347900390625
v -77.26640319824219 57.90840148925781 -62.51910018920898
v -77.26640319824219 57.99800109863281 -63.08480072021484
v -77.26640319824219 59.70890045166016 -62.51910018920898
v -77.26640319824219 58.66299819946289 -64
v -77.26640319824219 59.70890045166016 -64.34799957275391
v -66.72879791259766 59.70890045166016 -62.51910018920898
v -66.72879791259766 59.70890045166016 -64.34799957275391
v -66.08689880371094 58.66299819946289 -64
v -66.08689880371094 59.73889923095703 -64.347900390625
v -66.08689880371094 57.99800109863281 -63.08480072021484
v -66.08560180664062 57.90840148925781 -62.51910018920898
v -66.08689880371094 61.47980117797852 -63.08480072021484
v -66.08689880371094 61.56940078735352 -62.51910018920898
v -66.08689880371094 60.81480026245117 -64
v -66.08689880371094 46.62889862060547 -64
v -66.08689880371094 47.29389953613281 -63.08480072021484
v -66.08689880371094 45.55300140380859 -64.347900390625
v -66.08689880371094 44.47700119018555 -64
v -66.08689880371094 43.81209945678711 -63.08480072021484
v -66.08560180664062 43.72249984741211 -62.51910018920898
v -66.08689880371094 47.38339996337891 -62.51910018920898
v -66.72879791259766 57.90840148925781 -62.51910018920898
v -66.72879791259766 57.99800109863281 -63.08480072021484
v -66.72879791259766 58.66299819946289 -64
v -46.62570190429688 66.10410308837891 -61.94729995727539
v -46.62570190429688 57.16790008544922 -61.94729995727539
v -46.62710189819336 66.09390258789062 -61.40670013427734
v -46.62710189819336 57.1781005859375 -61.40670013427734
v -46.38890075683594 56.93989944458008 -61.40670013427734
v -46.39899826049805 56.94129943847656 -61.94729995727539
v -45.62099838256836 57.79579925537109 -62.5093994140625
v -45.78139877319336 57.97079849243164 -62.5093994140625
v -45.78139877319336 65.30120086669922 -62.5093994140625
v -46.39899826049805 66.33070373535156 -61.94729995727539
v -46.38890075683594 66.33209991455078 -61.40670013427734
v -45.62099838256836 65.4761962890625 -62.5093994140625
v -1.43859994411469 65.4761962890625 -62.5093994140625
v -0.67070001363754 56.93989944458008 -61.40670013427734
v -0.66049998998642 56.94129943847656 -61.94729995727539
v -0.43250000476837 57.1781005859375 -61.40670013427734
v -0.43389999866486 57.16790008544922 -61.94729995727539
v -1.43859994411469 57.79579925537109 -62.5093994140625
v -1.27810001373291 57.97079849243164 -62.5093994140625
v -1.27810001373291 65.30120086669922 -62.5093994140625
v -0.43389999866486 66.10410308837891 -61.94729995727539
v -0.66049998998642 66.33070373535156 -61.94729995727539
v -0.67070001363754 66.33209991455078 -61.40670013427734
v -0.43250000476837 66.09390258789062 -61.40670013427734
v 45.42850112915039 57.97079849243164 -62.5093994140625
v 45.26810073852539 57.79579925537109 -62.5093994140625
v 1.08560001850128 57.79579925537109 -62.5093994140625
v 0.92519998550415 57.97079849243164 -62.5093994140625
v 0.92519998550415 65.30120086669922 -62.5093994140625
v 45.26810073852539 65.4761962890625 -62.5093994140625
v 45.42850112915039 65.30120086669922 -62.5093994140625
v 1.08560001850128 65.4761962890625 -62.5093994140625
v 0.08100000023842 57.16790008544922 -61.94729995727539
v 0.08100000023842 66.10410308837891 -61.94729995727539
v 0.30759999155998 56.94129943847656 -61.94729995727539
v 0.30759999155998 66.33070373535156 -61.94729995727539
v 46.04610061645508 56.94129943847656 -61.94729995727539
v 46.27280044555664 57.16790008544922 -61.94729995727539
v 46.27280044555664 66.10410308837891 -61.94729995727539
v 46.04610061645508 66.33070373535156 -61.94729995727539
v -94.50530242919922 54.12049865722656 -62.5093994140625
v -94.50530242919922 65.30120086669922 -62.5093994140625
v -94.34480285644531 53.94549942016602 -62.5093994140625
v -49.49179840087891 54.12049865722656 -62.5093994140625
v -49.65219879150391 65.4761962890625 -62.5093994140625
v -49.49179840087891 65.30120086669922 -62.5093994140625
v -94.34480285644531 65.4761962890625 -62.5093994140625
v -49.65219879150391 53.94549942016602 -62.5093994140625
v -48.87409973144531 66.33070373535156 -61.94729995727539
v -48.64749908447266 66.10410308837891 -61.94729995727539
v -48.64749908447266 53.31760025024414 -61.94729995727539
v -95.12290191650391 53.09099960327148 -61.94729995727539
v -48.87409973144531 53.09099960327148 -61.94729995727539
v -95.12290191650391 66.33070373535156 -61.94729995727539
v -95.34950256347656 66.10410308837891 -61.94729995727539
v -95.34950256347656 53.31760025024414 -61.94729995727539
v -49.49179840087891 40.08810043334961 -62.5093994140625
v -49.65219879150391 39.91310119628906 -62.5093994140625
v -94.34480285644531 39.91310119628906 -62.5093994140625
v -94.50530242919922 40.08810043334961 -62.5093994140625
v -94.50530242919922 51.268798828125 -62.5093994140625
v -49.65219879150391 51.44380187988281 -62.5093994140625
v -49.49179840087891 51.268798828125 -62.5093994140625
v -94.34480285644531 51.44380187988281 -62.5093994140625
v -49.49179840087891 25.97080039978027 -62.5093994140625
v -49.65219879150391 25.79579925537109 -62.5093994140625
v -94.34480285644531 25.79579925537109 -62.5093994140625
v -94.50530242919922 25.97080039978027 -62.5093994140625
v -94.50530242919922 37.1515007019043 -62.5093994140625
v -49.65219879150391 37.32649993896484 -62.5093994140625
v -49.49179840087891 37.1515007019043 -62.5093994140625
v -94.34480285644531 37.32649993896484 -62.5093994140625
v -95.34950256347656 25.16790008544922 -61.94729995727539
v -95.34950256347656 37.95439910888672 -61.94729995727539
v -95.12290191650391 24.94129943847656 -61.94729995727539
v -95.12290191650391 38.18099975585938 -61.94729995727539
v -48.87409973144531 24.94129943847656 -61.94729995727539
v -48.64749908447266 25.16790008544922 -61.94729995727539
v -48.64749908447266 37.95439910888672 -61.94729995727539
v -48.87409973144531 38.18099975585938 -61.94729995727539
v -48.64749908447266 52.07170104980469 -61.94729995727539
v -48.64749908447266 39.28519821166992 -61.94729995727539
v -48.87409973144531 39.05860137939453 -61.94729995727539
v -95.12290191650391 39.05860137939453 -61.94729995727539
v -95.34950256347656 39.28519821166992 -61.94729995727539
v -48.87409973144531 52.29830169677734 -61.94729995727539
v -95.12290191650391 52.29830169677734 -61.94729995727539
v -95.34950256347656 52.07170104980469 -61.94729995727539
v -94.34480285644531 11.75809955596924 -62.5093994140625
v -49.65219879150391 11.75809955596924 -62.5093994140625
v -95.12290191650391 10.90359973907471 -61.94729995727539
v -95.34950256347656 11.13020038604736 -61.94729995727539
v -94.50530242919922 11.9330997467041 -62.5093994140625
v -94.50530242919922 23.11380004882812 -62.5093994140625
v -48.87409973144531 10.90359973907471 -61.94729995727539
v -48.64749908447266 11.13020038604736 -61.94729995727539
v -49.49179840087891 11.9330997467041 -62.5093994140625
v -49.49179840087891 23.11380004882812 -62.5093994140625
v -48.64749908447266 23.91670036315918 -61.94729995727539
v -49.65219879150391 23.28879928588867 -62.5093994140625
v -48.87409973144531 24.1432991027832 -61.94729995727539
v -95.12290191650391 24.1432991027832 -61.94729995727539
v -94.34480285644531 23.28879928588867 -62.5093994140625
v -95.34950256347656 23.91670036315918 -61.94729995727539
v 47.00260162353516 55.72159957885742 21.42490005493164
v -47.23329925537109 55.72159957885742 21.42490005493164
v 47.09170150756836 55.72159957885742 -61.42190170288086
v -47.25270080566406 55.72159957885742 -61.4197998046875
v 98.16500091552734 69.64730072021484 32.77259826660156
v 95.49559783935547 72.01129913330078 30.10309982299805
v -98.16459655761719 69.64730072021484 32.77519989013672
v -95.49549865722656 72.01129913330078 30.10630035400391
v -98.14430236816406 69.64730072021484 -63.66590118408203
v -95.46859741210938 72.01129913330078 -60.99039840698242
v -98.16510009765625 67.71360015869141 32.77519989013672
v 98.16510009765625 67.71360015869141 32.77249908447266
v 98.16500091552734 69.64730072021484 -63.68360137939453
v 98.16510009765625 67.71360015869141 -63.68360137939453
v -98.14389801025391 67.71360015869141 -63.66500091552734
v 47.09170150756836 67.78410339355469 -61.42190170288086
v -47.25270080566406 67.78440093994141 -61.4197998046875
v 95.49559783935547 72.01129913330078 -61.01399993896484
v -97.05580139160156 66.92929840087891 31.6658992767334
v -97.02899932861328 66.92929840087891 -62.55009841918945
v 97.05509948730469 66.92929840087891 31.66250038146973
v 97.05509948730469 66.92929840087891 -62.57350158691406
v 47.00270080566406 12.33189964294434 21.49930000305176
v -47.27040100097656 12.33189964294434 21.49930000305176
v 47.00270080566406 66.93779754638672 21.49930000305176
v -47.27040100097656 66.93779754638672 21.49930000305176
v 47.00270080566406 66.93779754638672 23.05680084228516
v -47.27040100097656 66.93779754638672 23.05680084228516
v 47.00270080566406 12.33189964294434 23.05680084228516
v -47.27040100097656 12.33189964294434 23.05680084228516
v -50.81000137329102 4.90799999237061 27.83399963378906
v -47.24069976806641 4.16739988327026 31.40329933166504
v -50.81000137329102 4.90799999237061 -57.86819839477539
v -47.25270080566406 4.16739988327026 -61.4197998046875
v -93.17859649658203 4.90799999237061 -57.86819839477539
v -96.74800109863281 4.16739988327026 -61.4375
v -93.17859649658203 4.90799999237061 27.83399963378906
v -96.74800109863281 4.16739988327026 31.40329933166504
v -50.81000137329102 9.49580001831055 27.83399963378906
v -50.81000137329102 9.49580001831055 -57.86819839477539
v -93.17859649658203 9.49580001831055 -57.86819839477539
v -93.17859649658203 9.49580001831055 27.83399963378906
v -47.25270080566406 9.49580001831055 -61.4197998046875
v -96.72429656982422 9.49580001831055 -61.41379928588867
v -96.72429656982422 67.78459930419922 -61.41379928588867
v 96.94200134277344 4.16739988327026 31.40329933166504
v 96.94200134277344 4.16739988327026 -61.4375
v 47.09170150756836 4.16739988327026 -61.42190170288086
v 47.0275993347168 4.16739988327026 31.40329933166504
v 93.15899658203125 9.49580001831055 27.83399963378906
v 93.15899658203125 4.90799999237061 27.83399963378906
v 93.15899658203125 9.49580001831055 -57.86819839477539
v 93.15899658203125 4.90799999237061 -57.86819839477539
v 50.79029846191406 9.49580001831055 -57.86819839477539
v 50.79029846191406 4.90799999237061 -57.86819839477539
v 50.79029846191406 9.49580001831055 27.83399963378906
v 50.79029846191406 4.90799999237061 27.83399963378906
v 96.70459747314453 9.49580001831055 31.37960052490234
v 96.70459747314453 9.49580001831055 -61.41379928588867
v 47.09170150756836 9.49580001831055 -61.42190170288086
v 47.24480056762695 9.49580001831055 31.37960052490234
v 47.09170150756836 67.78459930419922 -61.42190170288086
v 96.70459747314453 67.78459930419922 -61.41379928588867
v 47.24480056762695 67.78459930419922 31.37960052490234
v 96.70459747314453 67.78459930419922 31.37960052490234
v 28.54159927368164 59.81980133056641 -62.51910018920898
v 28.54159927368164 59.90940093994141 -63.08480072021484
v 28.54159927368164 60.57429885864258 -64
v -66.72879791259766 15.66880035400391 -62.51910018920898
v -66.72879791259766 15.75839996337891 -63.08480072021484
v -66.72879791259766 16.42329978942871 -64
v -66.72879791259766 43.72249984741211 -62.51910018920898
v -66.72879791259766 43.81209945678711 -63.08480072021484
v -66.72879791259766 44.47700119018555 -64
v 52.44889831542969 40.93000030517578 -64.22039794921875
v 52.44889831542969 43.54790115356445 -64.22039794921875
v 52.44889831542969 45.82849884033203 -64.11900329589844
v 52.44889831542969 47.01699829101562 -63.4833984375
v 52.44889831542969 47.36230087280273 -62.5172004699707
v 52.44889831542969 30.9424991607666 -62.5172004699707
v 52.44889831542969 31.05030059814453 -62.90999984741211
v 52.44889831542969 32.31710052490234 -63.78929901123047
v 52.44889831542969 35.01110076904297 -64.22039794921875
v 52.44889831542969 37.13169860839844 -64.22039794921875
v 52.44889831542969 41.85049819946289 -65.21080017089844
v 52.44889831542969 44.62300109863281 -65.21080017089844
v 52.44889831542969 47.12110137939453 -65.08779907226562
v 52.44889831542969 48.92020034790039 -64.17430114746094
v 52.44889831542969 49.6072998046875 -62.5172004699707
v 52.44889831542969 27.63890075683594 -62.5172004699707
v 52.44889831542969 27.92740058898926 -63.47330093383789
v 52.44889831542969 30.06859970092773 -64.73059844970703
v 52.44889831542969 33.53310012817383 -65.21080017089844
v 52.44889831542969 36.30559921264648 -65.21080017089844
# 429 vertices

vt 0.93879997730255 0.48250007629395 0
vt 0.93879997730255 0.57410001754761 0
vt 0.9879999756813 0.57410001754761 0
vt 0.9879999756813 0.48250007629395 0
vt 0.11490000039339 0.2885000705719 0
vt 0.10980000346899 0.28550004959106 0
vt 0.10689999908209 0.2885000705719 0
vt 0 0 0
vt 0.11819999665022 0.28550004959106 0
vt 0.12189999967813 0.28880000114441 0
vt 0.12579999864101 0.28589999675751 0
vt 0.1254999935627 0.2907999753952 0
vt 0.1313000023365 0.28860008716583 0
vt 0.13339999318123 0.2936999797821 0
vt 0.12659999728203 0.2936999797821 0
vt 0.07649999856949 0.2936999797821 0
vt 0.06740000098944 0.2907999753952 0
vt 0.06650000065565 0.2936999797821 0
vt 0.07689999789 0.29250001907349 0
vt 0.0738999992609 0.28700006008148 0
vt 0.08079999685287 0.28980004787445 0
vt 0.08439999818802 0.28550004959106 0
vt 0.08889999985695 0.2885000705719 0
vt 0.0929000005126 0.28550004959106 0
vt 0.09539999812841 0.2885000705719 0
vt 0.92269998788834 0.11940002441406 0
vt 0.7577999830246 0.11960005760193 0
vt 0.75660002231598 0.12120008468628 0
vt 0.92419999837875 0.12129998207092 0
vt 0.92629998922348 0.12090003490448 0
vt 0.9254999756813 0.1224000453949 0
vt 0.75749999284744 0.26170003414154 0
vt 0.75749999284744 0.12410008907318 0
vt 0.75499999523163 0.12250006198883 0
vt 0.75510001182556 0.26320004463196 0
vt 0.9225999712944 0.12360000610352 0
vt 0.75349998474121 0.26219999790192 0
vt 0.75330001115799 0.12360000610352 0
vt 0.75569999217987 0.26610004901886 0
vt 0.75650000572205 0.26470005512238 0
vt 0.92570000886917 0.26330006122589 0
vt 0.92739999294281 0.26219999790192 0
vt 0.92739999294281 0.12360000610352 0
vt 0.92309999465942 0.26170003414154 0
vt 0.92400002479553 0.26460003852844 0
vt 0.92669999599457 0.26510000228882 0
vt 0.92710000276566 0.26410007476807 0
vt 0.75789999961853 0.26639997959137 0
vt 0.92280000448227 0.26620006561279 0
vt 0.91149997711182 0.61059999465942 0
vt 0.93550002574921 0.61059999465942 0
vt 0.93550002574921 0.6981999874115 0
vt 0.91149997711182 0.6981999874115 0
vt 0.29219999909401 0.09940004348755 0
vt 0.29219999909401 0.2804000377655 0
vt 0.44569998979568 0.2804000377655 0
vt 0.44569998979568 0.09940004348755 0
vt 0.73290002346039 0.83749997615814 0
vt 0.7305999994278 0.83290004730225 0
vt 0.73089998960495 0.83459997177124 0
vt 0.74169999361038 0.83459997177124 0
vt 0.74199998378754 0.83290004730225 0
vt 0.73629999160767 0.83850002288818 0
vt 0.73960000276566 0.83749997615814 0
vt 0.73000001907349 0.82379996776581 0
vt 0.72530001401901 0.82710003852844 0
vt 0.72820001840591 0.82910001277924 0
vt 0.73000001907349 0.82940000295639 0
vt 0.72430002689362 0.82379996776581 0
vt 0.7364000082016 0.83029997348785 0
vt 0.7364000082016 0.79760003089905 0
vt 0.73070001602173 0.79760003089905 0
vt 0.74210000038147 0.7930999994278 0
vt 0.73669999837875 0.7892000079155 0
vt 0.74010002613068 0.79030001163483 0
vt 0.74239999055862 0.79490000009537 0
vt 0.73100000619888 0.79490000009537 0
vt 0.73129999637604 0.7930999994278 0
vt 0.73339998722076 0.79030001163483 0
vt 0.7282999753952 0.79830002784729 0
vt 0.7253999710083 0.80040001869202 0
vt 0.73000001907349 0.80360001325607 0
vt 0.72430002689362 0.80360001325607 0
vt 0.72850000858307 0.83029997348785 0
vt 0.72850000858307 0.83230000734329 0
vt 0.73309999704361 0.83230000734329 0
vt 0.73309999704361 0.83029997348785 0
vt 0.73650002479553 0.83230000734329 0
vt 0.73979997634888 0.83230000734329 0
vt 0.74440002441406 0.83230000734329 0
vt 0.74440002441406 0.79559999704361 0
vt 0.73979997634888 0.79559999704361 0
vt 0.73650002479553 0.79559999704361 0
vt 0.73309999704361 0.79559999704361 0
vt 0.73309999704361 0.79760003089905 0
vt 0.72850000858307 0.79559999704361 0
vt 0.74809998273849 0.61930000782013 0
vt 0.74790000915527 0.64600002765656 0
vt 0.74970000982285 0.64640003442764 0
vt 0.74970000982285 0.61900001764297 0
vt 0.75089997053146 0.64700001478195 0
vt 0.75 0.64840000867844 0
vt 0.75260001420975 0.64450001716614 0
vt 0.75209999084473 0.62139999866486 0
vt 0.75089997053146 0.61830002069473 0
vt 0.74919998645782 0.61730003356934 0
vt 0.88870000839233 0.62090003490448 0
vt 0.89020001888275 0.6182000041008 0
vt 0.89219999313354 0.6482999920845 0
vt 0.89179998636246 0.64630001783371 0
vt 0.89010000228882 0.64710003137588 0
vt 0.88870000839233 0.64450001716614 0
vt 0.89170002937317 0.61910003423691 0
vt 0.88919997215271 0.61660003662109 0
vt 0.75209999084473 0.61660003662109 0
vt 0.89340001344681 0.64610004425049 0
vt 0.89340001344681 0.61930000782013 0
vt 0.89240002632141 0.61730003356934 0
vt 0.88919997215271 0.64880001544952 0
vt 0.75209999084473 0.64880001544952 0
vt 0.75080001354218 0.60930001735687 0
vt 0.88739997148514 0.60870003700256 0
vt 0.75029999017715 0.58619999885559 0
vt 0.88690000772476 0.58560001850128 0
vt 0.74769997596741 0.61100000143051 0
vt 0.74790000915527 0.58380001783371 0
vt 0.7461000084877 0.58410000801086 0
vt 0.7461000084877 0.61080002784729 0
vt 0.74940001964569 0.61190003156662 0
vt 0.8885999917984 0.61180001497269 0
vt 0.74730002880096 0.61309999227524 0
vt 0.74819999933243 0.58180004358292 0
vt 0.74919998645782 0.58310002088547 0
vt 0.8885999917984 0.58310002088547 0
vt 0.88739997148514 0.61349999904633 0
vt 0.75029999017715 0.61349999904633 0
vt 0.88980001211166 0.61110001802444 0
vt 0.88980001211166 0.58380001783371 0
vt 0.88739997148514 0.58140003681183 0
vt 0.75029999017715 0.58140003681183 0
vt 0.88940000534058 0.58160001039505 0
vt 0.89160001277924 0.61080002784729 0
vt 0.8914999961853 0.58399999141693 0
vt 0.89039999246597 0.61260002851486 0
vt 0.89120000600815 0.75360000133514 0
vt 0.75249999761581 0.75360000133514 0
vt 0.89120000600815 0.78799998760223 0
vt 0.75300002098084 0.78850001096725 0
vt 0.75080001354218 0.79070001840591 0
vt 0.74860000610352 0.79229998588562 0
vt 0.74989998340607 0.79299998283386 0
vt 0.75 0.75129997730255 0
vt 0.74830001592636 0.75160002708435 0
vt 0.74830001592636 0.78990000486374 0
vt 0.75249999761581 0.74880003929138 0
vt 0.75160002708435 0.75040000677109 0
vt 0.89230000972748 0.75049996376038 0
vt 0.89120000600815 0.74880003929138 0
vt 0.89219999313354 0.791100025177 0
vt 0.75260001420975 0.79280000925064 0
vt 0.89120000600815 0.79280000925064 0
vt 0.89450001716614 0.79199999570847 0
vt 0.8938000202179 0.79019999504089 0
vt 0.8953999876976 0.78990000486374 0
vt 0.89520001411438 0.75160002708435 0
vt 0.89359998703003 0.75129997730255 0
vt 0.89310002326965 0.74910002946854 0
vt 0.88940000534058 0.65729999542236 0
vt 0.75129997730255 0.65790003538132 0
vt 0.8899000287056 0.69230002164841 0
vt 0.75180000066757 0.69279998540878 0
vt 0.89069998264313 0.79869997501373 0
vt 0.75249999761581 0.79919999837875 0
vt 0.89120000600815 0.83370000123978 0
vt 0.75300002098084 0.8342000246048 0
vt 0.89359998703003 0.79700005054474 0
vt 0.89359998703003 0.83599996566772 0
vt 0.8953999876976 0.83560001850128 0
vt 0.89520001411438 0.79729998111725 0
vt 0.89230000972748 0.79620003700256 0
vt 0.75139999389648 0.79620003700256 0
vt 0.89310002326965 0.79470002651215 0
vt 0.89340001344681 0.83799999952316 0
vt 0.89230000972748 0.83670002222061 0
vt 0.75160002708435 0.8367999792099 0
vt 0.75249999761581 0.79449999332428 0
vt 0.89120000600815 0.79449999332428 0
vt 0.75010001659393 0.79700005054474 0
vt 0.75 0.83590000867844 0
vt 0.75249999761581 0.83840000629425 0
vt 0.89120000600815 0.83840000629425 0
vt 0.74930000305176 0.83770000934601 0
vt 0.74849998950958 0.79729998111725 0
vt 0.74830001592636 0.83560001850128 0
vt 0.74970000982285 0.79509997367859 0
vt 0.74879997968674 0.75 0
vt 0.74870002269745 0.65560001134872 0
vt 0.7470999956131 0.65590000152588 0
vt 0.7470999956131 0.69420003890991 0
vt 0.74889999628067 0.69459998607636 0
vt 0.75029999017715 0.65470004081726 0
vt 0.74739998579025 0.65460002422333 0
vt 0.75129997730255 0.65310001373291 0
vt 0.89109998941422 0.65479999780655 0
vt 0.8899000287056 0.65310001373291 0
vt 0.8924999833107 0.69450002908707 0
vt 0.89230000972748 0.65560001134872 0
vt 0.89279997348785 0.65369999408722 0
vt 0.74830001592636 0.69609999656677 0
vt 0.75010001659393 0.69530004262924 0
vt 0.89090001583099 0.69539999961853 0
vt 0.89410001039505 0.69420003890991 0
vt 0.89399999380112 0.65590000152588 0
vt 0.8938000202179 0.69550001621246 0
vt 0.75129997730255 0.69710004329681 0
vt 0.8899000287056 0.69710004329681 0
vt 0.89130002260208 0.7039999961853 0
vt 0.75040000677109 0.7039999961853 0
vt 0.75199997425079 0.70660001039505 0
vt 0.88969999551773 0.70660001039505 0
vt 0.89259999990463 0.70480000972748 0
vt 0.89310002326965 0.70300000905991 0
vt 0.89209997653961 0.70260000228882 0
vt 0.89020001888275 0.74150002002716 0
vt 0.89259999990463 0.74380004405975 0
vt 0.75150001049042 0.70230001211166 0
vt 0.89020001888275 0.70230001211166 0
vt 0.74910002946854 0.70480000972748 0
vt 0.7490000128746 0.74380004405975 0
vt 0.75150001049042 0.74150002002716 0
vt 0.74750000238419 0.70509999990463 0
vt 0.74730002880096 0.74340003728867 0
vt 0.74870002269745 0.70300000905991 0
vt 0.74769997596741 0.74470001459122 0
vt 0.75050002336502 0.74459999799728 0
vt 0.89130002260208 0.74459999799728 0
vt 0.8944000005722 0.74340003728867 0
vt 0.89420002698898 0.70509999990463 0
vt 0.75150001049042 0.74630004167557 0
vt 0.89020001888275 0.74630004167557 0
vt 0.89240002632141 0.74630004167557 0
vt 0.8934999704361 0.74570000171661 0
vt 0.73729997873306 0.68800002336502 0
vt 0.62650001049042 0.68800002336502 0
vt 0.62650001049042 0.78540003299713 0
vt 0.73729997873306 0.78540003299713 0
vt 0.0113000003621 0.69400000572205 0
vt 0.01960000023246 0.70219999551773 0
vt 0.61250001192093 0.70230001211166 0
vt 0.62080001831055 0.69400000572205 0
vt 0.01960000023246 0.98510003089905 0
vt 0.0113000003621 0.99339997768402 0
vt 0.9031999707222 0.09170007705688 0
vt 0.29359999299049 0.09170007705688 0
vt 0.29359999299049 0.09769999980927 0
vt 0.9031999707222 0.09769999980927 0
vt 0.29359999299049 0.0842000246048 0
vt 0.59310001134872 0.0842000246048 0
vt 0.59310001134872 0.07819998264313 0
vt 0.29359999299049 0.07819998264313 0
vt 0.59289997816086 0.07140004634857 0
vt 0.29350000619888 0.07140004634857 0
vt 0.90280002355576 0.08520007133484 0
vt 0.89410001039505 0.03900003433228 0
vt 0.60149997472763 0.03900003433228 0
vt 0.60149997472763 0.07650005817413 0
vt 0.89410001039505 0.07650005817413 0
vt 0.7538999915123 0.12070000171661 0
vt 0.61250001192093 0.98510003089905 0
vt 0.62080001831055 0.99339997768402 0
vt 0.18670000135899 0.09300005435944 0
vt 0.18670000135899 0.00530004501343 0
vt 0.00609999988228 0.00540006160736 0
vt 0.00609999988228 0.09300005435944 0
vt 0.00510000018403 0.00429999828339 0
vt 0.18770000338554 0.00429999828339 0
vt 0.18770000338554 0.09409999847412 0
vt 0.00510000018403 0.09409999847412 0
vt 0.45559999346733 0.48800003528595 0
vt 0.74830001592636 0.48800003528595 0
vt 0.74830001592636 0.31850004196167 0
vt 0.45559999346733 0.31850004196167 0
vt 0.76139998435974 0.28450000286102 0
vt 0.76139998435974 0.57719999551773 0
vt 0.93089997768402 0.57719999551773 0
vt 0.93089997768402 0.28450000286102 0
vt 0.74830001592636 0.31360006332397 0
vt 0.45559999346733 0.31360006332397 0
vt 0.01370000001043 0.67790001630783 0
vt 0.00260000000708 0.68900001049042 0
vt 0.29089999198914 0.68900001049042 0
vt 0.27979999780655 0.67790001630783 0
vt 0.74639999866486 0.30589997768402 0
vt 0.75739997625351 0.29480004310608 0
vt 0.60369998216629 0.29480004310608 0
vt 0.61479997634888 0.30589997768402 0
vt 0.56940001249313 0.68959999084473 0
vt 0.58050000667572 0.67849999666214 0
vt 0.29219999909401 0.67849999666214 0
vt 0.3032999932766 0.68959999084473 0
vt 0.97949999570847 0.98659998178482 0
vt 0.99059998989105 0.99769997596741 0
vt 0.99059998989105 0.84399998188019 0
vt 0.97949999570847 0.85510003566742 0
vt 0.30370000004768 0.03439998626709 0
vt 0.30370000004768 0.04729998111725 0
vt 0.59189999103546 0.04729998111725 0
vt 0.59189999103546 0.03439998626709 0
vt 0.46439999341965 0.01170003414154 0
vt 0.46439999341965 0.0246000289917 0
vt 0.61809998750687 0.0246000289917 0
vt 0.61809998750687 0.01170003414154 0
vt 0.30439999699593 0.05030000209808 0
vt 0.30439999699593 0.06319999694824 0
vt 0.59270000457764 0.06319999694824 0
vt 0.59270000457764 0.05030000209808 0
vt 0.3018000125885 0.01370000839233 0
vt 0.3018000125885 0.02660000324249 0
vt 0.45550000667572 0.02660000324249 0
vt 0.45550000667572 0.01370000839233 0
vt 0.63510000705719 0.01569998264313 0
vt 0.63510000705719 0.02999997138977 0
vt 0.9011999964714 0.02999997138977 0
vt 0.9011999964714 0.01569998264313 0
vt 0.98589998483658 0.10660004615784 0
vt 0.97159999608994 0.10660004615784 0
vt 0.97159999608994 0.23810005187988 0
vt 0.98589998483658 0.23810005187988 0
vt 0.966000020504 0.10820007324219 0
vt 0.95169997215271 0.10820007324219 0
vt 0.95169997215271 0.37419998645782 0
vt 0.966000020504 0.37419998645782 0
vt 0.97060000896454 0.37890005111694 0
vt 0.98479998111725 0.37890005111694 0
vt 0.98479998111725 0.24730002880096 0
vt 0.97060000896454 0.24730002880096 0
vt 0.03359999880195 0.35759997367859 0
vt 0.03689999878407 0.36090004444122 0
vt 0.11620000004768 0.36090004444122 0
vt 0.11949999630451 0.35759997367859 0
vt 0.04069999977946 0.36500000953674 0
vt 0.07989999651909 0.36500000953674 0
vt 0.0832000002265 0.3617000579834 0
vt 0.03449999913573 0.353600025177 0
vt 0.03779999911785 0.35689997673035 0
vt 0.11710000038147 0.35689997673035 0
vt 0.1203999966383 0.353600025177 0
vt 0.03649999946356 0.36590003967285 0
vt 0.03979999944568 0.3691999912262 0
vt 0.07900000363588 0.3691999912262 0
vt 0.08229999989271 0.36590003967285 0
vt 0.45170000195503 0.49110007286072 0
vt 0.29809999465942 0.49110007286072 0
vt 0.29809999465942 0.67210000753403 0
vt 0.45170000195503 0.67210000753403 0
vt 0.73979997634888 0.67210000753403 0
vt 0.73979997634888 0.49110007286072 0
vt 0.00999999977648 0.49110007286072 0
vt 0.00999999977648 0.67210000753403 0
vt 0.00989999994636 0.29939997196198 0
vt 0.00989999994636 0.31230008602142 0
vt 0.29820001125336 0.31230008602142 0
vt 0.29820001125336 0.29939997196198 0
vt 0.02769999951124 0.37849998474121 0
vt 0.02769999951124 0.3914999961853 0
vt 0.18269999325275 0.3914999961853 0
vt 0.18269999325275 0.37849998474121 0
vt 0.01150000002235 0.3154000043869 0
vt 0.01150000002235 0.32840001583099 0
vt 0.29969999194145 0.32840001583099 0
vt 0.29969999194145 0.3154000043869 0
vt 0.02779999934137 0.39300000667572 0
vt 0.02779999934137 0.40590000152588 0
vt 0.18269999325275 0.40590000152588 0
vt 0.18269999325275 0.39300000667572 0
vt 0.02459999918938 0.46109998226166 0
vt 0.02459999918938 0.47530007362366 0
vt 0.29039999842644 0.47530007362366 0
vt 0.29039999842644 0.46109998226166 0
vt 0.02690000087023 0.41100001335144 0
vt 0.02690000087023 0.42530000209808 0
vt 0.15850000083447 0.42530000209808 0
vt 0.15850000083447 0.41100001335144 0
vt 0.02449999935925 0.44389998912811 0
vt 0.02449999935925 0.45810008049011 0
vt 0.29030001163483 0.45810008049011 0
vt 0.29030001163483 0.44389998912811 0
vt 0.16030000150204 0.44110000133514 0
vt 0.16030000150204 0.4268000125885 0
vt 0.02869999967515 0.4268000125885 0
vt 0.02869999967515 0.44110000133514 0
vt 0.58689999580383 0.67480003833771 0
vt 0.59049999713898 0.67840003967285 0
vt 0.67869997024536 0.67840003967285 0
vt 0.68239998817444 0.67480003833771 0
vt 0.68970000743866 0.67470002174377 0
vt 0.69340002536774 0.67830002307892 0
vt 0.73699998855591 0.67830002307892 0
vt 0.74059998989105 0.67470002174377 0
vt 0.58649998903275 0.68020004034042 0
vt 0.59020000696182 0.68380004167557 0
vt 0.67839998006821 0.68380004167557 0
vt 0.68209999799728 0.68020004034042 0
vt 0.74059998989105 0.68080002069473 0
vt 0.73699998855591 0.68440002202988 0
vt 0.69340002536774 0.68440002202988 0
vt 0.68970000743866 0.68080002069473 0
vt 0.9336000084877 0.27149999141693 0
vt 0.9336000084877 0.11370003223419 0
vt 0.74760001897812 0.11370003223419 0
vt 0.74760001897812 0.27149999141693 0
vt 0.00410000002012 0.09940004348755 0
vt 0.00410000002012 0.2804000377655 0
vt 0.73379999399185 0.2804000377655 0
vt 0.73379999399185 0.09940004348755 0
vt 0.30160000920296 0.48710000514984 0
vt 0.30160000920296 0.33210003376007 0
vt 0.29049998521805 0.34380006790161 0
vt 0.01339999958873 0.33210003376007 0
vt 0.02439999952912 0.34380006790161 0
vt 0.01339999958873 0.48710000514984 0
vt 0.03130000084639 0.28460001945496 0
vt 0.02329999953508 0.28470003604889 0
vt 0.02329999953508 0.28890001773834 0
vt 0.03130000084639 0.28770005702972 0
vt 0.01630000025034 0.28470003604889 0
vt 0.01640000008047 0.29070007801056 0
vt 0.01269999984652 0.28470003604889 0
vt 0.01269999984652 0.29290008544922 0
vt 0.00949999969453 0.28470003604889 0
vt 0.00949999969453 0.29540002346039 0
vt 0.0625 0.28450000286102 0
vt 0.06129999831319 0.28460001945496 0
vt 0.06140000000596 0.28990006446838 0
vt 0.0625 0.291100025177 0
vt 0.05750000104308 0.28460001945496 0
vt 0.05750000104308 0.28830003738403 0
vt 0.04930000007153 0.28460001945496 0
vt 0.04930000007153 0.28729999065399 0
vt 0.04280000180006 0.28460001945496 0
vt 0.04280000180006 0.28719997406006 0
vt 0.17890000343323 0.29290008544922 0
vt 0.18729999661446 0.29290008544922 0
vt 0.18400000035763 0.28990006446838 0
vt 0.1761000007391 0.28990006446838 0
vt 0.19490000605583 0.29250001907349 0
vt 0.19099999964237 0.28949999809265 0
vt 0.20039999485016 0.28970003128052 0
vt 0.19460000097752 0.28760004043579 0
vt 0.20250000059605 0.28470003604889 0
vt 0.19560000300407 0.28470003604889 0
vt 0.13650000095367 0.28760004043579 0
vt 0.14599999785423 0.28589999675751 0
vt 0.14569999277592 0.28470003604889 0
vt 0.13560000061989 0.28470003604889 0
vt 0.14300000667572 0.2914000749588 0
vt 0.14980000257492 0.2885000705719 0
vt 0.15350000560284 0.29290008544922 0
vt 0.15800000727177 0.28990006446838 0
vt 0.16200000047684 0.29290008544922 0
vt 0.16449999809265 0.28990006446838 0
vt 0.25380000472069 0.28780007362366 0
vt 0.26219999790192 0.28869998455048 0
vt 0.26219999790192 0.28470003604889 0
vt 0.25380000472069 0.28470003604889 0
vt 0.26980000734329 0.29000008106232 0
vt 0.26980000734329 0.28470003604889 0
vt 0.27529999613762 0.29240000247955 0
vt 0.27529999613762 0.28470003604889 0
vt 0.28040000796318 0.2960000038147 0
vt 0.28040000796318 0.28470003604889 0
vt 0.21140000224113 0.29000008106232 0
vt 0.21140000224113 0.28470003604889 0
vt 0.20849999785423 0.28470003604889 0
vt 0.20849999785423 0.29159998893738 0
vt 0.21789999306202 0.2882000207901 0
vt 0.21789999306202 0.28470003604889 0
vt 0.22849999368191 0.28719997406006 0
vt 0.22849999368191 0.28470003604889 0
vt 0.2369000017643 0.28710007667542 0
vt 0.2369000017643 0.28470003604889 0
# 481 texture coordinates

o Desk
usemtl Desk
f 1/4 2/3 4/2 3/1
f 5/7 6/6 7/5
f 8/9 7/5 6/6
f 7/5 8/9 9/10
f 10/11 9/10 8/9
f 9/10 10/11 11/12
f 12/13 11/12 10/11
f 12/13 13/14 11/12
f 14/15 11/12 13/14
f 15/18 16/17 17/16
f 18/19 17/16 16/17
f 16/17 19/20 18/19
f 20/21 18/19 19/20
f 19/20 21/22 20/21
f 22/23 20/21 21/22
f 21/22 23/24 22/23
f 24/25 22/23 23/24
f 23/24 6/6 24/25
f 5/7 24/25 6/6
f 25/29 26/28 28/27 27/26
f 29/31 25/29 27/30 30/30
f 31/35 32/34 34/33 33/32
f 32/34 26/28 34/33
f 35/33 34/33 26/28
f 26/28 25/29 36/36 35/33
f 25/29 29/31 36/36
f 37/36 36/36 29/31
f 38/38 32/34 31/35 39/37
f 40/40 41/39 39/39 31/35
f 30/43 42/42 43/41 29/31
f 29/31 43/41 44/44 37/36
f 43/41 45/45 44/44
f 46/44 44/44 45/45
f 45/45 40/40 47/32 46/44
f 40/40 31/35 47/32
f 33/32 47/32 31/35
f 45/45 43/41 42/47 48/46
f 40/40 45/45 48/49 41/48
f 49/51 50/51 52/50 51/50
f 53/52 54/53 56/53 55/52
f 57/51 58/51 60/50 59/50
f 61/52 62/53 64/53 63/52
f 65/51 66/51 68/50 67/50
f 69/52 70/53 72/53 71/52
f 73/51 74/51 76/50 75/50
f 77/52 78/53 80/53 79/52
f 81/2 82/1 84/4 83/3
f 85/57 86/56 88/55 87/54
f 89/60 90/59 91/58
f 90/59 92/62 93/61 91/58
f 93/61 94/64 95/63 91/58
f 96/68 97/67 99/66 98/65
f 98/65 99/66 100/69
f 101/68 98/72 100/71 102/70
f 103/68 104/72 106/71 105/70
f 107/75 108/74 109/73
f 108/74 110/76 109/73
f 111/78 112/77 110/76 108/74
f 113/79 111/78 108/74
f 35/33 37/36 33/32 34/33
f 36/36 37/36 35/33
f 46/44 47/32 33/32 37/36
f 44/44 46/44 37/36
f 114/79 115/78 119/76 116/74
f 117/75 116/74 118/73
f 116/74 119/76 118/73
f 120/77 119/76 115/78
f 121/72 103/82 123/81 122/80
f 123/81 103/82 105/83
f 110/85 121/84 122/68 109/59
f 109/59 122/68 123/87 107/86
f 123/87 105/70 107/86
f 108/88 107/86 105/70
f 105/70 113/89 108/88
f 124/91 112/90 111/62 125/76
f 111/62 113/89 126/92 125/76
f 113/89 105/70 106/71 126/92
f 126/92 106/71 127/93
f 127/93 106/71 128/94
f 129/95 128/94 106/71
f 129/95 130/72 131/77 128/94
f 130/72 132/80 133/96 131/77
f 134/60 135/59 136/58
f 135/59 137/62 138/61 136/58
f 138/61 139/64 140/63 136/58
f 141/68 142/67 144/66 143/65
f 143/65 144/66 145/69
f 146/68 143/72 145/71 147/70
f 148/68 149/67 151/66 150/65
f 150/65 151/66 152/69
f 153/68 150/72 152/71 154/70
f 155/75 156/74 157/73
f 156/74 158/76 157/73
f 159/78 160/77 158/76 156/74
f 161/79 159/78 156/74
f 162/79 163/78 167/76 164/74
f 165/75 164/74 166/73
f 164/74 167/76 166/73
f 168/77 167/76 163/78
f 169/72 153/82 171/81 170/80
f 171/81 153/82 154/83
f 152/71 172/92 161/89 154/70
f 172/92 152/71 173/93
f 173/93 152/71 174/94
f 151/95 174/94 152/71
f 151/95 149/72 175/77 174/94
f 149/72 148/80 176/96 175/77
f 158/85 169/84 170/68 157/59
f 157/59 170/68 171/87 155/86
f 171/87 154/70 155/86
f 156/88 155/86 154/70
f 154/70 161/89 156/88
f 172/92 177/76 159/62 161/89
f 159/62 177/76 178/91 160/90
f 179/60 180/59 181/58
f 180/59 182/62 183/61 181/58
f 183/61 184/64 185/63 181/58
f 186/68 187/67 189/66 188/65
f 188/65 189/66 190/69
f 191/68 188/72 190/71 192/70
f 193/51 194/51 196/50 195/50
f 197/52 198/53 200/53 199/52
f 201/60 202/59 203/58
f 202/59 204/62 205/61 203/58
f 205/61 206/64 207/63 203/58
f 208/68 209/67 211/66 210/65
f 210/65 211/66 212/69
f 213/68 210/72 212/71 214/70
f 215/75 216/74 217/73
f 216/74 218/76 217/73
f 219/78 220/77 218/76 216/74
f 221/79 219/78 216/74
f 222/79 223/78 227/76 224/74
f 225/75 224/74 226/73
f 224/74 227/76 226/73
f 228/77 227/76 223/78
f 229/72 213/82 231/81 230/80
f 231/81 213/82 214/83
f 212/71 206/92 221/89 214/70
f 206/92 212/71 207/93
f 207/93 212/71 203/94
f 211/95 203/94 212/71
f 211/95 209/72 201/77 203/94
f 209/72 208/80 202/96 201/77
f 218/85 229/84 230/68 217/59
f 217/59 230/68 231/87 215/86
f 231/87 214/70 215/86
f 216/88 215/86 214/70
f 214/70 221/89 216/88
f 206/92 205/76 219/62 221/89
f 219/62 205/76 204/91 220/90
f 232/100 233/99 235/98 234/97
f 236/102 235/102 233/99 237/101
f 237/101 233/99 238/103
f 239/103 238/103 233/99
f 239/103 233/99 232/100 240/104
f 232/100 241/105 240/104
f 232/100 234/106 242/106 241/105
f 243/104 241/105 253/108 244/107
f 243/104 240/104 241/105
f 245/109 246/111 248/110 247/109
f 246/111 249/112 248/110
f 250/112 248/110 249/112
f 250/112 251/107 252/113 248/110
f 251/107 244/107 252/113
f 253/108 252/113 244/107
f 253/108 241/105 242/115 254/114
f 252/113 255/117 247/116 248/110
f 253/108 254/118 255/118 252/113
f 236/120 237/101 246/111 245/119
f 246/111 237/101 238/103 249/112
f 240/104 250/112 249/112 238/103
f 239/103 240/104 238/103
f 243/104 244/107 250/112 240/104
f 251/107 250/112 244/107
f 260/123 256/122 257/122 258/121
f 259/121 260/123 258/121
f 263/123 261/124 256/122 260/123
f 262/124 256/122 261/124
f 54/128 53/127 265/126 264/125
f 265/126 260/123 259/121 264/125
f 259/121 258/121 264/125
f 266/129 264/125 258/121
f 258/121 257/122 268/130 266/129
f 56/131 54/131 264/125 266/129
f 55/132 267/133 265/126 53/132
f 265/126 267/133 260/123
f 263/123 260/123 267/133
f 263/123 267/133 271/134 261/124
f 56/136 266/129 268/130 52/135
f 268/130 257/122 269/137
f 256/122 269/137 257/122
f 256/122 262/124 270/138 269/137
f 262/124 261/124 270/138
f 271/134 270/138 261/124
f 271/134 267/133 55/140 50/139
f 271/134 50/141 49/141 270/138
f 270/138 49/143 51/142 269/137
f 269/137 51/144 52/144 268/130
f 272/145 273/147 275/146 274/145
f 278/147 276/148 275/146 273/147
f 277/148 275/146 276/148
f 275/146 279/146 274/145
f 280/149 194/151 193/150 281/149
f 281/149 193/154 195/153 282/152
f 200/158 283/157 284/156 196/155
f 284/156 283/157 274/145 279/146
f 284/156 279/146 282/152
f 275/146 282/152 279/146
f 275/146 277/148 281/149 282/152
f 277/148 276/148 281/149
f 280/149 281/149 276/148
f 280/149 276/148 278/147 285/159
f 280/149 285/159 199/161 194/160
f 199/162 285/159 286/163 197/162
f 286/163 285/159 273/147
f 278/147 273/147 285/159
f 286/163 287/166 198/165 197/164
f 286/163 273/147 272/145 287/166
f 272/145 274/145 287/166
f 283/157 287/166 274/145
f 200/167 198/167 287/166 283/157
f 292/170 288/169 289/169 290/168
f 291/168 292/170 290/168
f 295/170 293/171 288/169 292/170
f 294/171 288/169 293/171
f 300/174 296/173 297/173 298/172
f 299/172 300/174 298/172
f 303/174 301/175 296/173 300/174
f 302/175 296/173 301/175
f 70/179 69/178 305/177 304/176
f 305/177 300/174 299/172 304/176
f 299/172 298/172 304/176
f 306/180 304/176 298/172
f 298/172 297/173 308/181 306/180
f 72/182 70/182 304/176 306/180
f 71/183 307/184 305/177 69/183
f 305/177 307/184 300/174
f 303/174 300/174 307/184
f 303/174 307/184 311/185 301/175
f 72/187 306/180 308/181 68/186
f 308/181 297/173 309/188
f 296/173 309/188 297/173
f 296/173 302/175 310/189 309/188
f 302/175 301/175 310/189
f 311/185 310/189 301/175
f 311/185 307/184 71/191 66/190
f 311/185 66/192 65/192 310/189
f 310/189 65/194 67/193 309/188
f 309/188 67/195 68/195 308/181
f 282/152 195/196 196/196 284/156
f 312/200 73/199 75/198 313/197
f 294/171 293/171 312/200
f 312/200 313/197 288/169 294/171
f 288/169 313/197 289/169
f 314/201 289/169 313/197
f 313/197 75/202 76/202 314/201
f 80/205 315/204 314/201 76/203
f 314/201 315/204 290/168 289/169
f 291/168 316/207 319/206 292/170
f 291/168 290/168 316/207
f 315/204 316/207 290/168
f 316/207 315/204 80/208 78/208
f 73/209 312/200 317/210 74/209
f 317/210 312/200 293/171
f 317/210 293/171 295/170 318/211
f 295/170 292/170 318/211
f 319/206 318/211 292/170
f 319/206 316/207 78/213 77/212
f 319/206 77/214 79/214 318/211
f 317/210 318/211 79/216 74/215
f 320/220 321/219 326/218 322/217
f 64/223 62/222 323/221 322/217
f 322/217 323/221 320/220
f 324/220 320/220 323/221
f 324/220 323/221 335/225 325/224
f 64/227 322/217 326/218 60/226
f 326/218 321/219 327/228
f 328/219 327/228 321/219
f 328/219 329/230 330/229 327/228
f 329/230 331/230 330/229
f 330/229 57/232 59/231 327/228
f 327/228 59/233 60/233 326/218
f 57/234 330/229 332/235 58/234
f 332/235 330/229 331/230
f 332/235 331/230 334/224 333/236
f 334/224 325/224 333/236
f 335/225 333/236 325/224
f 335/225 323/221 62/238 61/237
f 332/235 333/236 63/240 58/239
f 335/225 61/242 63/241 333/236
f 336/246 337/245 339/244 338/243
f 340/250 341/249 343/248 342/247
f 344/252 342/247 343/248 345/251
f 346/256 347/255 340/254 342/253
f 348/260 340/259 347/258 349/257
f 346/260 342/262 344/261 350/259
f 349/253 350/254 344/257 348/263
f 255/51 254/51 245/50 247/50
f 234/52 235/53 236/53 242/52
f 338/267 339/266 352/265 351/264
f 26/28 32/34 38/268 28/268
f 348/270 344/252 345/251 353/269
f 343/248 341/249 353/269 345/251
f 340/250 348/270 353/269 341/249
f 354/274 355/273 357/272 356/271
f 355/273 350/275 357/272
f 349/276 357/272 350/275
f 357/272 349/276 347/277 356/271
f 347/277 346/278 354/274 356/271
f 346/278 350/275 354/274
f 355/273 354/274 350/275
f 358/282 359/281 361/280 360/279
f 362/286 363/285 365/284 364/283
f 364/288 365/287 359/281 358/282
f 366/292 367/291 369/290 368/289
f 368/296 369/295 371/294 370/293
f 370/300 371/299 373/298 372/297
f 372/304 373/303 367/302 366/301
f 367/308 83/307 84/306 369/305
f 369/312 84/311 82/310 371/309
f 371/316 82/315 81/314 373/313
f 373/320 81/319 83/318 367/317
f 374/324 366/323 368/322 375/321
f 375/328 368/327 370/326 376/325
f 376/332 370/331 372/330 377/329
f 377/336 372/335 366/334 374/333
f 88/340 374/339 375/338 378/337
f 378/343 375/342 376/341 379/338
f 379/347 376/346 377/345 86/344
f 86/351 377/350 374/349 88/348
f 378/355 379/354 380/353 352/352
f 378/355 352/352 87/357 88/356
f 380/353 379/354 86/359 85/358
f 381/363 2/362 1/361 382/360
f 382/367 1/366 3/365 383/364
f 383/371 3/370 4/369 384/368
f 384/375 4/374 2/373 381/372
f 385/379 386/378 388/377 387/376
f 387/383 388/382 390/381 389/380
f 389/387 390/386 392/385 391/384
f 391/391 392/390 386/389 385/388
f 393/395 385/394 387/393 394/392
f 394/399 387/398 389/397 395/396
f 395/403 389/402 391/401 396/400
f 396/407 391/406 385/405 393/404
f 397/411 398/410 394/409 395/408
f 399/57 396/56 393/55 400/54
f 394/413 398/412 400/54 393/55
f 399/57 397/415 395/414 396/56
f 324/220 325/224 328/219 320/220
f 334/224 331/230 328/219 325/224
f 329/230 328/219 331/230
f 328/219 321/219 320/220
f 401/72 101/82 403/81 402/80
f 403/81 101/82 102/83
f 392/418 384/417 381/416 386/378
f 384/417 392/418 383/419
f 390/420 383/419 392/418
f 383/419 390/420 388/377 382/421
f 382/421 388/377 386/378 381/416
f 131/60 133/59 128/58
f 133/59 124/62 125/61 128/58
f 125/61 126/64 127/63 128/58
f 404/72 146/82 406/81 405/80
f 406/81 146/82 147/83
f 100/71 94/92 114/89 102/70
f 94/92 100/71 95/93
f 95/93 100/71 91/94
f 99/95 91/94 100/71
f 99/95 97/72 89/77 91/94
f 97/72 96/80 90/96 89/77
f 119/85 401/84 402/68 118/59
f 118/59 402/68 403/87 117/86
f 403/87 102/70 117/86
f 116/88 117/86 102/70
f 102/70 114/89 116/88
f 94/92 93/76 115/62 114/89
f 115/62 93/76 92/91 120/90
f 407/72 191/82 409/81 408/80
f 409/81 191/82 192/83
f 132/68 130/67 129/66 104/65
f 104/65 129/66 106/69
f 5/425 7/424 411/423 410/422
f 7/424 9/427 412/426 411/423
f 9/427 11/429 413/428 412/426
f 11/429 14/431 414/430 413/428
f 17/435 18/434 416/433 415/432
f 18/434 20/437 417/436 416/433
f 20/437 22/439 418/438 417/436
f 22/439 24/441 419/440 418/438
f 24/441 5/425 410/422 419/440
f 410/445 411/444 421/443 420/442
f 411/444 412/447 422/446 421/443
f 412/447 413/449 423/448 422/446
f 413/449 414/451 424/450 423/448
f 425/455 415/454 416/453 426/452
f 426/452 416/453 417/457 427/456
f 427/456 417/457 418/459 428/458
f 428/458 418/459 419/461 429/460
f 419/461 410/445 420/442 429/460
f 145/71 139/92 162/89 147/70
f 139/92 145/71 140/93
f 140/93 145/71 136/94
f 144/95 136/94 145/71
f 144/95 142/72 134/77 136/94
f 142/72 141/80 135/96 134/77
f 167/85 404/84 405/68 166/59
f 166/59 405/68 406/87 165/86
f 406/87 147/70 165/86
f 164/88 165/86 147/70
f 147/70 162/89 164/88
f 139/92 138/76 163/62 162/89
f 163/62 138/76 137/91 168/90
f 420/465 421/464 8/463 6/462
f 8/463 421/464 422/467 10/466
f 422/467 423/469 12/468 10/466
f 423/469 424/471 13/470 12/468
f 15/475 425/474 426/473 16/472
f 16/472 426/473 427/477 19/476
f 427/477 428/479 21/478 19/476
f 21/478 428/479 429/481 23/480
f 429/481 420/465 6/462 23/480
f 190/71 184/92 222/89 192/70
f 184/92 190/71 185/93
f 185/93 190/71 181/94
f 189/95 181/94 190/71
f 189/95 187/72 179/77 181/94
f 187/72 186/80 180/96 179/77
f 227/85 407/84 408/68 226/59
f 226/59 408/68 409/87 225/86
f 409/87 192/70 225/86
f 224/88 225/86 192/70
f 192/70 222/89 224/88
f 184/92 183/76 223/62 222/89
f 223/62 183/76 182/91 228/90
f 175/60 176/59 174/58
f 176/59 178/62 177/61 174/58
f 177/61 172/64 173/63 174/58

