# Blender v2.71 (sub 0) OBJ File: ''
# www.blender.org
mtllib FloorCube.mtl
o Cube
v 1.000000 -1.000000 -1.000000
v 1.000000 -1.000000 1.000000
v -1.000000 -1.000000 1.000000
v -1.000000 -1.000000 -1.000000
v 1.000000 1.000000 -0.999999
v 0.999999 1.000000 1.000001
v -1.000000 1.000000 1.000000
v -1.000000 1.000000 -1.000000
vt 0.000000 0.000000
vt 1.000000 0.000000
vt 1.000000 1.000000
vt 0.000000 1.000000
usemtl Material
s off
f 1/1 2/2 3/3 4/4
f 5/1 8/2 7/3 6/4
f 1/1 5/2 6/3 2/4
f 2/1 6/2 7/3 3/4
f 3/1 7/2 8/3 4/4
f 5/1 1/2 4/3 8/4
