# WaveFront *.obj file (generated by CINEMA 4D)

mtllib ./MedicalCabinet.mtl

v 5.42019987106323 88.77940368652344 -40.14931869506836
v 6.31599998474121 88.7843017578125 -39.4310188293457
v 4.12569999694824 88.77619934082031 -40.54911804199219
v -4.06260013580322 88.77619934082031 -40.54911804199219
v -5.35710000991821 88.77940368652344 -40.14931869506836
v -6.53450012207031 88.74620056152344 -37.31631851196289
v 6.59759998321533 88.74620056152344 -37.31631851196289
v -6.25290012359619 88.7843017578125 -39.4310188293457
v -5.35710000991821 104.82890319824219 -1.87181758880615
v -6.53450012207031 103.872802734375 0.79528248310089
v -6.25299978256226 104.60310363769531 -1.18991756439209
v -4.06260013580322 104.9541015625 -2.25151753425598
v 4.12569999694824 104.9541015625 -2.25151753425598
v 6.31599998474121 104.60310363769531 -1.18991756439209
v 6.59759998321533 103.872802734375 0.79528248310089
v 5.42019987106323 104.82890319824219 -1.87181758880615
v -5.35710000991821 16.82460021972656 -40.14931869506836
v -6.53450012207031 16.79150009155273 -37.31621932983398
v -6.25290012359619 16.82959938049316 -39.4310188293457
v -4.06260013580322 16.82150077819824 -40.54901885986328
v 4.12569999694824 16.82150077819824 -40.54901885986328
v 6.31599998474121 16.82959938049316 -39.4310188293457
v 6.59759998321533 16.79150009155273 -37.31621932983398
v 5.42019987106323 16.82469940185547 -40.14931869506836
v -5.35710000991821 28.8400993347168 -40.14931869506836
v -6.53450012207031 28.80690002441406 -37.31621932983398
v -6.25290012359619 28.84499931335449 -39.4310188293457
v -4.06260013580322 28.83690071105957 -40.54901885986328
v 4.12569999694824 28.83690071105957 -40.54901885986328
v 6.31599998474121 28.84499931335449 -39.4310188293457
v 6.59759998321533 28.80690002441406 -37.31621932983398
v 5.42019987106323 28.8400993347168 -40.14931869506836
v -5.35710000991821 40.62699890136719 -40.14931869506836
v -6.53450012207031 40.59389877319336 -37.31621932983398
v -6.25290012359619 40.63199996948242 -39.4310188293457
v -4.06260013580322 40.62379837036133 -40.54901885986328
v 4.12569999694824 40.62379837036133 -40.54901885986328
v 6.31599998474121 40.63199996948242 -39.4310188293457
v 6.59759998321533 40.59379959106445 -37.31621932983398
v 5.42019987106323 40.62699890136719 -40.14931869506836
v -5.35710000991821 52.67499923706055 -40.14931869506836
v -6.53450012207031 52.64189910888672 -37.31631851196289
v -6.25290012359619 52.68000030517578 -39.4310188293457
v -4.06260013580322 52.67190170288086 -40.54911804199219
v 4.12569999694824 52.67190170288086 -40.54911804199219
v 6.31599998474121 52.68000030517578 -39.4310188293457
v 6.59759998321533 52.64189910888672 -37.31631851196289
v 5.42019987106323 52.67499923706055 -40.14931869506836
v 6.31599998474121 54.48759841918945 -37.14491653442383
v 6.31599998474121 54.48540115356445 -38.75161743164062
v 5.42019987106323 55.43099975585938 -37.13281631469727
v 6.31599998474121 54.2505989074707 -39.11272048950195
v 5.42019987106323 55.42689895629883 -38.91561889648438
v 4.12569999694824 55.95449829101562 -37.1268196105957
v 4.12569999694824 55.94950103759766 -39.00661849975586
v -4.06260013580322 55.95449829101562 -37.1268196105957
v -4.06260013580322 55.94950103759766 -39.00661849975586
v -5.35710000991821 55.43099975585938 -37.13281631469727
v -5.35710000991821 55.42689895629883 -38.91561889648438
v -6.25290012359619 54.48759841918945 -37.14491653442383
v -6.25290012359619 54.48540115356445 -38.75161743164062
v -6.25290012359619 54.2505989074707 -39.11272048950195
v -5.35710000991821 55.00379943847656 -39.56631851196289
v -4.06260013580322 55.42190170288086 -39.81801986694336
v 4.12569999694824 55.42190170288086 -39.81801986694336
v 5.42019987106323 55.00379943847656 -39.56631851196289
v 6.31599998474121 53.8297004699707 -39.36182022094727
v 5.42019987106323 54.24549865722656 -40.01511764526367
v 4.12569999694824 54.47629928588867 -40.37771987915039
v -5.35710000991821 54.24549865722656 -40.01511764526367
v -4.06260013580322 54.47620010375977 -40.37771987915039
v -6.25290012359619 53.8297004699707 -39.36182022094727
v -5.35710000991821 64.85130310058594 -40.14931869506836
v -6.53450012207031 64.81819915771484 -37.31631851196289
v -6.25290012359619 64.85630035400391 -39.4310188293457
v -4.06260013580322 64.84809875488281 -40.54911804199219
v 4.12569999694824 64.84809875488281 -40.54911804199219
v 6.31599998474121 64.85630035400391 -39.4310188293457
v 6.59759998321533 64.81819915771484 -37.31631851196289
v 5.42019987106323 64.85130310058594 -40.14931869506836
v -6.25290012359619 66.00599670410156 -39.36182022094727
v -6.25290012359619 66.66159820556641 -38.75161743164062
v -6.25290012359619 66.66390228271484 -37.14491653442383
v -5.35710000991821 67.60320281982422 -38.91561889648438
v -6.25290012359619 66.42680358886719 -39.11272048950195
v -5.35710000991821 66.42179870605469 -40.01511764526367
v -4.06260013580322 66.65249633789062 -40.37771987915039
v 4.12569999694824 66.65249633789062 -40.37771987915039
v 4.12569999694824 67.59809875488281 -39.81801986694336
v 4.12569999694824 68.12570190429688 -39.00661849975586
v 5.42019987106323 67.18009948730469 -39.56631851196289
v -4.06260013580322 68.12570190429688 -39.00661849975586
v -4.06260013580322 67.59809875488281 -39.81801986694336
v -5.35710000991821 67.18009948730469 -39.56631851196289
v 5.42019987106323 66.42179870605469 -40.01511764526367
v 6.31599998474121 66.00599670410156 -39.36182022094727
v 6.31599998474121 66.42680358886719 -39.11272048950195
v 6.31599998474121 66.66159820556641 -38.75161743164062
v 5.42019987106323 67.60320281982422 -38.91561889648438
v 6.31599998474121 66.66390228271484 -37.14491653442383
v 5.42019987106323 67.6072998046875 -37.13281631469727
v 4.12569999694824 68.13079833984375 -37.1268196105957
v -4.06260013580322 68.13079833984375 -37.1268196105957
v -5.35710000991821 67.6072998046875 -37.13281631469727
v -5.35710000991821 76.94490051269531 -40.14931869506836
v -6.53450012207031 76.91179656982422 -37.31631851196289
v -6.25290012359619 76.94989776611328 -39.4310188293457
v -4.06260013580322 76.94170379638672 -40.54911804199219
v 4.12569999694824 76.94170379638672 -40.54911804199219
v 6.31599998474121 76.94989776611328 -39.4310188293457
v 6.59759998321533 76.91179656982422 -37.31631851196289
v 5.42019987106323 76.94490051269531 -40.14931869506836
v -36.06159973144531 120.33529663085938 20.2968807220459
v -36.06159973144531 101.08450317382812 20.2968807220459
v -36.06159973144531 119.49349975585938 14.32628154754639
v -36.06159973144531 116.73709869384766 8.63098239898682
v -36.06159973144531 112.1593017578125 3.85508251190186
v -36.06159973144531 101.08450317382812 -1.08581757545471
v -36.06159973144531 106.31590270996094 0.10718245059252
v -38.46799850463867 101.08039855957031 -1.08631753921509
v -38.46799850463867 106.31909942626953 0.10748245567083
v -38.46799850463867 112.15519714355469 3.8551824092865
v -38.46799850463867 116.73799896240234 8.62998199462891
v -38.46799850463867 119.49259948730469 14.32688236236572
v -38.46799850463867 120.33429718017578 20.2968807220459
v 38.43379974365234 120.33319854736328 20.2968807220459
v 36.02750015258789 120.33529663085938 20.2968807220459
v 36.02750015258789 101.08450317382812 20.2968807220459
v -38.46789932250977 101.08450317382812 20.2968807220459
v -36.06159973144531 101.04570007324219 20.2968807220459
v 38.43389892578125 7.88320016860962 20.2968807220459
v 38.43379974365234 101.08450317382812 20.2968807220459
v -38.46799850463867 7.88329982757568 20.2968807220459
v -37.1067008972168 101.08039855957031 -34.0040168762207
v -37.1067008972168 7.88320016860962 -34.0040168762207
v -38.46789932250977 101.08039855957031 -30.71771621704102
v -38.46789932250977 7.88329982757568 -30.71771621704102
v 36.02750015258789 119.88749694824219 20.29508399963379
v -36.06159973144531 119.88749694824219 20.29508399963379
v 36.02750015258789 101.08450317382812 -1.08581757545471
v 38.43379974365234 101.08039855957031 -1.08551752567291
v 38.43389892578125 101.08039855957031 -30.71771621704102
v 37.07260131835938 101.08039855957031 -34.0040168762207
v 34.98239898681641 101.08039855957031 -36.09421920776367
v -35.01649856567383 101.08039855957031 -36.09421920776367
v -31.99830055236816 101.08039855957031 -37.45551681518555
v 31.42790031433105 101.08039855957031 -37.45551681518555
v -31.99830055236816 7.88320016860962 -37.45551681518555
v 31.42790031433105 7.88320016860962 -37.45551681518555
v -35.01649856567383 7.88329982757568 -36.09421920776367
v 37.07260131835938 7.88320016860962 -34.0040168762207
v 34.98239898681641 7.88320016860962 -36.09421920776367
v 38.43379974365234 7.88320016860962 -30.71771621704102
v 36.02750015258789 112.1593017578125 3.85508251190186
v 36.02750015258789 116.73709869384766 8.63098239898682
v 36.02750015258789 119.49349975585938 14.32628154754639
v 36.02750015258789 106.31590270996094 0.10718245059252
v 38.43379974365234 112.15789794921875 3.85538244247437
v 38.43379974365234 119.49299621582031 14.32628154754639
v 38.43379974365234 116.73719787597656 8.63098239898682
v 38.43379974365234 106.31690216064453 0.10648245364428
v 6.31599998474121 106.11000061035156 1.73988246917725
v 6.31599998474121 106.62619781494141 0.21828246116638
v 5.42019987106323 107.27790069580078 2.1511824131012
v 6.31599998474121 106.45110321044922 -0.22301754355431
v 5.42019987106323 107.84870147705078 0.46218246221542
v 4.12569999694824 107.92630004882812 2.37878251075745
v 4.12569999694824 108.527099609375 0.59748244285584
v -4.06260013580322 107.92630004882812 2.37878251075745
v -4.06260013580322 108.527099609375 0.59748244285584
v -5.35710000991821 107.27790069580078 2.1511824131012
v -5.35710000991821 107.84870147705078 0.46218246221542
v -6.25299978256226 106.11000061035156 1.73988246917725
v -6.25290012359619 106.62619781494141 0.21828246116638
v -6.25290012359619 106.45110321044922 -0.22301754355431
v -5.35710000991821 107.53330230712891 -0.33301755785942
v -4.06260013580322 108.13379669189453 -0.394017547369
v 4.12569999694824 108.13379669189453 -0.394017547369
v 5.42019987106323 107.53330230712891 -0.33301755785942
v 6.31599998474121 106.00879669189453 -0.63711756467819
v 5.42019987106323 106.73629760742188 -1.07921755313873
v 4.12569999694824 107.13999938964844 -1.32451748847961
v -4.06260013580322 107.13999938964844 -1.32451748847961
v -5.35710000991821 106.73629760742188 -1.07921755313873
v -6.25290012359619 106.00879669189453 -0.63711756467819
v -6.25290012359619 42.20249938964844 -39.11272048950195
v -6.25290012359619 42.43730163574219 -38.75161743164062
v -5.35710000991821 42.9557991027832 -39.56631851196289
v -5.35710000991821 43.37889862060547 -38.91561889648438
v -4.06260013580322 43.37379837036133 -39.81801986694336
v -4.06260013580322 43.90140151977539 -39.00661849975586
v 4.12569999694824 43.37379837036133 -39.81801986694336
v 4.12569999694824 43.90140151977539 -39.00661849975586
v 5.42019987106323 42.9557991027832 -39.56631851196289
v 5.42019987106323 43.37889862060547 -38.91561889648438
v 6.31599998474121 42.20249938964844 -39.11272048950195
v 6.31599998474121 42.43730163574219 -38.75161743164062
v 5.42019987106323 43.38290023803711 -37.13281631469727
v 6.31599998474121 42.43960189819336 -37.14491653442383
v 6.31599998474121 41.78170013427734 -39.36182022094727
v 5.42019987106323 42.1974983215332 -40.01511764526367
v 4.12569999694824 42.42819976806641 -40.37771987915039
v -4.06260013580322 42.42819976806641 -40.37771987915039
v -5.35710000991821 42.1974983215332 -40.01511764526367
v -6.25290012359619 41.78170013427734 -39.36182022094727
v -6.25290012359619 42.43960189819336 -37.14481735229492
v -5.35710000991821 43.38290023803711 -37.13281631469727
v -4.06260013580322 43.90650177001953 -37.1268196105957
v 4.12569999694824 43.90650177001953 -37.1268196105957
v 6.31599998474121 18.40019989013672 -39.11272048950195
v 6.31599998474121 17.97929954528809 -39.36182022094727
v 5.42019987106323 19.15340042114258 -39.56631851196289
v 5.42019987106323 18.39509963989258 -40.01511764526367
v 4.12569999694824 19.57150077819824 -39.81801986694336
v 4.12569999694824 18.62590026855469 -40.37771987915039
v -4.06260013580322 19.57150077819824 -39.81801986694336
v -4.06260013580322 18.62579917907715 -40.37771987915039
v 6.31599998474121 18.63500022888184 -38.75161743164062
v 5.42019987106323 19.57649993896484 -38.91561889648438
v 6.31599998474121 18.63719940185547 -37.14491653442383
v 5.42019987106323 19.58060073852539 -37.13281631469727
v 4.12569999694824 20.10409927368164 -37.1268196105957
v 4.12569999694824 20.09910011291504 -39.00661849975586
v -4.06260013580322 20.10409927368164 -37.1268196105957
v -4.06260013580322 20.09910011291504 -39.00661849975586
v -5.35710000991821 19.58060073852539 -37.13281631469727
v -5.35710000991821 19.57649993896484 -38.91561889648438
v -6.25290012359619 18.63719940185547 -37.14481735229492
v -6.25290012359619 18.63500022888184 -38.75161743164062
v -6.25290012359619 18.40019989013672 -39.11272048950195
v -5.35710000991821 19.15340042114258 -39.56631851196289
v -5.35710000991821 18.39509963989258 -40.01511764526367
v -6.25290012359619 17.97929954528809 -39.36182022094727
v -5.35710000991821 31.59199905395508 -38.91561889648438
v -5.35710000991821 31.16889953613281 -39.56631851196289
v -6.25290012359619 30.65040016174316 -38.75161743164062
v -4.06260013580322 31.58690071105957 -39.81801986694336
v -4.06260013580322 32.11449813842773 -39.00661849975586
v 4.12569999694824 31.58690071105957 -39.81801986694336
v 4.12569999694824 32.11449813842773 -39.00661849975586
v 5.42019987106323 31.16889953613281 -39.56631851196289
v 5.42019987106323 31.59199905395508 -38.91561889648438
v 6.31599998474121 30.41559982299805 -39.11272048950195
v 6.31599998474121 29.99469947814941 -39.36182022094727
v 5.42019987106323 30.41049957275391 -40.01511764526367
v 4.12569999694824 30.64130020141602 -40.37771987915039
v -4.06260013580322 30.64130020141602 -40.37771987915039
v -5.35710000991821 30.41049957275391 -40.01511764526367
v 6.31599998474121 30.65040016174316 -38.75161743164062
v 5.42019987106323 31.59600067138672 -37.13281631469727
v 4.12569999694824 32.11949920654297 -37.1268196105957
v 6.31599998474121 30.6525993347168 -37.14491653442383
v -4.06260013580322 32.11959838867188 -37.1268196105957
v -5.35710000991821 31.59600067138672 -37.13281631469727
v -6.25290012359619 30.65270042419434 -37.14481735229492
v -6.25290012359619 30.41559982299805 -39.11272048950195
v -6.25290012359619 29.99480056762695 -39.36182022094727
v -4.06260013580322 80.21929931640625 -39.00661849975586
v -4.06260013580322 79.69170379638672 -39.81801986694336
v -5.35710000991821 79.69680023193359 -38.91561889648438
v 4.12569999694824 79.69170379638672 -39.81801986694336
v 4.12569999694824 80.21929931640625 -39.00661849975586
v 5.42019987106323 79.27369689941406 -39.56631851196289
v 5.42019987106323 79.69680023193359 -38.91561889648438
v 6.31599998474121 78.52040100097656 -39.11272048950195
v 6.31599998474121 78.09960174560547 -39.36182022094727
v 5.42019987106323 78.51540374755859 -40.01511764526367
v 4.12569999694824 78.74610137939453 -40.37771987915039
v -4.06260013580322 78.74610137939453 -40.37771987915039
v -5.35710000991821 79.27369689941406 -39.56631851196289
v -5.35710000991821 78.51540374755859 -40.01511764526367
v -6.25290012359619 78.52040100097656 -39.11272048950195
v -6.25290012359619 78.09960174560547 -39.36182022094727
v 6.31599998474121 78.75520324707031 -38.75161743164062
v 5.42019987106323 79.70089721679688 -37.13281631469727
v 4.12569999694824 80.22440338134766 -37.1268196105957
v -4.06260013580322 80.22440338134766 -37.1268196105957
v 6.31599998474121 78.75749969482422 -37.14491653442383
v -5.35710000991821 79.70089721679688 -37.13281631469727
v -6.25290012359619 78.75749969482422 -37.14491653442383
v -6.25290012359619 78.75520324707031 -38.75161743164062
v 6.31599998474121 90.59200286865234 -37.14491653442383
v 6.31599998474121 90.58969879150391 -38.75161743164062
v 5.42019987106323 91.53530120849609 -37.13281631469727
v 6.31599998474121 89.93409729003906 -39.36182022094727
v 6.31599998474121 90.35489654541016 -39.11272048950195
v 5.42019987106323 91.53130340576172 -38.91561889648438
v 4.12569999694824 92.05889892578125 -37.1268196105957
v 4.12569999694824 92.05380249023438 -39.00661849975586
v -4.06260013580322 92.05889892578125 -37.1268196105957
v -4.06260013580322 92.05380249023438 -39.00661849975586
v -5.35710000991821 91.53530120849609 -37.13281631469727
v -5.35710000991821 91.53130340576172 -38.91561889648438
v 4.12569999694824 91.52619934082031 -39.81801986694336
v 5.42019987106323 91.10820007324219 -39.56631851196289
v 5.42019987106323 90.34980010986328 -40.01511764526367
v -6.25290012359619 90.59200286865234 -37.14491653442383
v -6.25290012359619 90.58969879150391 -38.75161743164062
v -6.25290012359619 90.35489654541016 -39.11272048950195
v -5.35710000991821 91.10820007324219 -39.56631851196289
v -4.06260013580322 91.52619934082031 -39.81801986694336
v 4.12569999694824 90.58059692382812 -40.37771987915039
v -4.06260013580322 90.58059692382812 -40.37771987915039
v -5.35710000991821 90.34980010986328 -40.01511764526367
v -6.25290012359619 89.93409729003906 -39.36182022094727
v 34.84579849243164 0.12219999730587 -32.43941879272461
v 34.84579849243164 9.74759960174561 -32.43941879272461
v 34.22769927978516 0.12219999730587 -31.5886173248291
v 34.22769927978516 9.74759960174561 -31.5886173248291
v 33.22760009765625 0.12219999730587 -31.26361846923828
v 33.22760009765625 9.74759960174561 -31.26361846923828
v 32.22740173339844 0.12219999730587 -31.5886173248291
v 32.22740173339844 9.74759960174561 -31.5886173248291
v 31.60930061340332 0.12219999730587 -32.43941879272461
v 31.60930061340332 9.74759960174561 -32.43941879272461
v 31.60930061340332 0.12219999730587 -33.49101638793945
v 31.60930061340332 9.74759960174561 -33.49101638793945
v 32.22740173339844 0.12219999730587 -34.34181594848633
v 32.22740173339844 9.74759960174561 -34.34181594848633
v 33.22760009765625 0.12219999730587 -34.66671752929688
v 33.22760009765625 9.74759960174561 -34.66671752929688
v 34.22769927978516 0.12219999730587 -34.34181594848633
v 34.22769927978516 9.74759960174561 -34.34181594848633
v 34.84579849243164 0.12219999730587 -33.49101638793945
v 34.84579849243164 9.74759960174561 -33.49101638793945
v -32.13359832763672 0.12219999730587 -32.43941879272461
v -32.13359832763672 9.74759960174561 -32.43941879272461
v -32.75170135498047 0.12219999730587 -31.5886173248291
v -32.75170135498047 9.74759960174561 -31.5886173248291
v -33.75189971923828 0.12219999730587 -31.26361846923828
v -33.75189971923828 9.74759960174561 -31.26361846923828
v -34.75199890136719 0.12219999730587 -31.5886173248291
v -34.75199890136719 9.74759960174561 -31.5886173248291
v -35.37020111083984 0.12219999730587 -32.43941879272461
v -35.37020111083984 9.74759960174561 -32.43941879272461
v -35.37020111083984 0.12219999730587 -33.49101638793945
v -35.37020111083984 9.74759960174561 -33.49101638793945
v -34.75199890136719 0.12219999730587 -34.34181594848633
v -34.75199890136719 9.74759960174561 -34.34181594848633
v -33.75189971923828 0.12219999730587 -34.66671752929688
v -33.75189971923828 9.74759960174561 -34.66671752929688
v -32.75170135498047 0.12219999730587 -34.34181594848633
v -32.75170135498047 9.74759960174561 -34.34181594848633
v -32.13359832763672 0.12219999730587 -33.49101638793945
v -32.13359832763672 9.74759960174561 -33.49101638793945
v -36.06159973144531 119.13210296630859 14.28108310699463
v 36.02750015258789 119.13210296630859 14.28108310699463
v -36.06159973144531 116.14769744873047 9.11878204345703
v 36.02750015258789 116.14769744873047 9.11878204345703
v -36.06159973144531 111.91300201416016 4.65568256378174
v 36.02750015258789 111.91300201416016 4.65568256378174
v -36.06159973144531 105.89720153808594 1.04608249664307
v 36.02750015258789 105.89720153808594 1.04608249664307
v -36.06159973144531 101.08450317382812 -0.15701754391193
v 36.02750015258789 101.08450317382812 -0.15701754391193
v 34.84579849243164 0.12219999730587 16.06388282775879
v 34.84579849243164 9.74759960174561 16.06388282775879
v 34.22769927978516 0.12219999730587 16.91468238830566
v 34.22769927978516 9.74759960174561 16.91468238830566
v 33.22760009765625 0.12219999730587 17.23968315124512
v 33.22760009765625 9.74759960174561 17.23968315124512
v 32.22740173339844 0.12219999730587 16.91468238830566
v 32.22740173339844 9.74759960174561 16.91468238830566
v 31.60930061340332 0.12219999730587 16.06388282775879
v 31.60930061340332 9.74759960174561 16.06388282775879
v 31.60930061340332 0.12219999730587 15.012282371521
v 31.60930061340332 9.74759960174561 15.012282371521
v 32.22740173339844 0.12219999730587 14.16148376464844
v 32.22740173339844 9.74759960174561 14.16148376464844
v 33.22760009765625 0.12219999730587 13.83658313751221
v 33.22760009765625 9.74759960174561 13.83658313751221
v 34.22769927978516 0.12219999730587 14.16148376464844
v 34.22769927978516 9.74759960174561 14.16148376464844
v 34.84579849243164 0.12219999730587 15.012282371521
v 34.84579849243164 9.74759960174561 15.012282371521
v -32.13359832763672 0.12219999730587 16.06388282775879
v -32.13359832763672 9.74759960174561 16.06388282775879
v -32.75170135498047 0.12219999730587 16.91468238830566
v -32.75170135498047 9.74759960174561 16.91468238830566
v -33.75189971923828 0.12219999730587 17.23968315124512
v -33.75189971923828 9.74759960174561 17.23968315124512
v -34.75199890136719 0.12219999730587 16.91468238830566
v -34.75199890136719 9.74759960174561 16.91468238830566
v -35.37020111083984 0.12219999730587 16.06388282775879
v -35.37020111083984 9.74759960174561 16.06388282775879
v -35.37020111083984 0.12219999730587 15.012282371521
v -35.37020111083984 9.74759960174561 15.012282371521
v -34.75199890136719 0.12219999730587 14.16148376464844
v -34.75199890136719 9.74759960174561 14.16148376464844
v -33.75189971923828 0.12219999730587 13.83658313751221
v -33.75189971923828 9.74759960174561 13.83658313751221
v -32.75170135498047 0.12219999730587 14.16148376464844
v -32.75170135498047 9.74759960174561 14.16148376464844
v -32.13359832763672 0.12219999730587 15.012282371521
v -32.13359832763672 9.74759960174561 15.012282371521
# 395 vertices

vn 0.0007187720621 -0.9999994635582 0.00075002299855
vn 0.00121877924539 -0.99999278783798 -0.00359383621253
vn 0.0005937575479 -0.99998146295547 0.00606257654727
vn 0 0 0
vn -0.0076877255924 -0.99993562698364 -0.00834399554878
vn 0 -0.99996799230576 0.00800024438649
vn -0.00496876845136 -0.99990993738174 -0.01246879529208
vn 0 -0.9998379945755 -0.01800045929849
vn -0.02228126488626 -0.99953180551529 -0.02096876129508
vn -0.02934478223324 -0.93675172328949 -0.34876227378845
vn -0.00656255241483 -0.94097626209259 -0.33840894699097
vn -0.0101563623175 -0.94276040792465 -0.33331617712975
vn 0.00090625899611 -0.94675940275192 -0.32194069027901
vn 0 -0.94970953464508 -0.31313225626945
vn 0.00156254274771 -0.94490092992783 -0.32735273241997
vn 0 -0.93850946426392 -0.34525346755981
vn 0.00062501727371 -0.94905745983124 -0.31510242819786
vn 0.62069982290268 0.78404676914215 -0.00156253087334
vn 0.87604355812073 0.47238168120384 -0.09697011858225
vn 0.89805346727371 0.43988588452339 -0.00059376470745
vn 0.99396145343781 0.08009568601847 -0.07500180602074
vn 0.8631100654602 0.37241330742836 -0.34110021591187
vn 0.56551450490952 0.79292660951614 -0.2268495708704
vn 0.25394490361214 0.96721559762955 -0.00243757083081
vn 0.19056755304337 0.94158744812012 -0.27766361832619
vn -0.1270337998867 0.9918949007988 -0.00262505281717
vn -0.19462639093399 0.93888175487518 -0.2839395403862
vn -0.50163370370865 0.8650775551796 -0.00209378637373
vn -0.56708538532257 0.78534424304962 -0.2482912838459
vn -0.84726679325104 0.53116679191589 -0.00093751854729
vn -0.87258875370026 0.45426365733147 -0.17953665554523
vn -0.99396145343781 0.08009568601847 -0.07500180602074
vn -0.85641705989838 0.32812917232513 -0.39859881997108
vn -0.52779591083527 0.57942235469818 -0.62104851007462
vn -0.17712984979153 0.67889356613159 -0.71255069971085
vn 0.17041152715683 0.68302118778229 -0.71024078130722
vn 0.52451866865158 0.59270858764648 -0.61120921373367
vn 0.8420182466507 0.19172289967537 -0.50422966480255
vn 0.4833576977253 0.26797649264336 -0.83339905738831
vn 0.15387941896915 0.30547752976418 -0.93968325853348
vn -0.19434553384781 0.08971957117319 -0.97682148218155
vn -0.48647904396057 0.25878670811653 -0.83448642492294
vn -0.51663374900818 0.06625112146139 -0.85363948345184
vn -0.15778402984142 0.30331784486771 -0.93973535299301
vn 0.09884564578533 0.09409555792809 -0.99064403772354
vn 0.40654036402702 0.0808143094182 -0.91005164384842
vn 0.79179167747498 0.0436880774796 -0.60922676324844
vn -0.83805507421494 0.12297224253416 -0.53154635429382
vn -0.8706716299057 0.02953177131712 -0.49097740650177
vn 1 0 0
vn 0.00018750525487 0.33254057168961 -0.94308894872665
vn -0.00015625102969 0.22231395542622 -0.97497510910034
vn -0.00003125036528 0.43997392058372 -0.89801055192947
vn -0.0005312616122 0.60445070266724 -0.79664236307144
vn -0.00053126330022 0.66532915830612 -0.74654996395111
vn -0.00003125025978 0.78978782892227 -0.61338013410568
vn 0.0001875058224 0.84993261098862 -0.52689135074615
vn -0.00009375326044 0.94025152921677 -0.34048062562943
vn -0.00040626275586 0.97059297561646 -0.24072632193565
vn -0.00040625856491 0.99020838737488 -0.13959668576717
vn 0 0 1
vn 0 0 -1
vn -1 0 0
vn -0.9657336473465 0 -0.25953525304794
vn -0.92388850450516 0 -0.38266184926033
vn -0.9952780008316 0 -0.09706523269415
vn 0.00040626263944 0.99999994039536 -0.00006250194565
vn 0.00168755021878 0.99999856948853 0
vn 0.98079043626785 0 -0.19506432116032
vn 0.92388850450516 0 -0.38266184926033
vn 0.00084376754239 0.99020808935165 -0.13959665596485
vn 0.71264803409576 0.66452151536942 0.2248197644949
vn 0.91517806053162 0.40204083919525 0.02850067988038
vn 0.93195736408234 0.34335106611252 0.11647123843431
vn 0.99530482292175 0.08212694525719 -0.05121996253729
vn 0.65086179971695 0.75911474227905 -0.01112530753016
vn 0.88507652282715 0.39847508072853 -0.24053508043289
vn 0.3207888007164 0.89742738008499 0.30285087227821
vn 0.23347492516041 0.9721195101738 -0.02175057679415
vn -0.16050371527672 0.93527168035507 0.31544482707977
vn -0.24481804668903 0.96895945072174 -0.03437577560544
vn -0.59614056348801 0.76067614555359 0.25688171386719
vn -0.65263664722443 0.75632601976395 -0.04512580856681
vn -0.89689660072327 0.41888508200645 0.14181591570377
vn -0.90821927785873 0.41398322582245 -0.06128339096904
vn -0.99530225992203 0.08215798437595 -0.05121983215213
vn -0.87306636571884 0.37979653477669 -0.30579355359077
vn -0.56901407241821 0.67070412635803 -0.47579300403595
vn -0.20019456744194 0.80721604824066 -0.55526965856552
vn 0.18619003891945 0.81257355213165 -0.55232006311417
vn 0.56382519006729 0.68379658460617 -0.46316665410995
vn 0.84673321247101 0.30628648400307 -0.43500745296478
vn 0.48938173055649 0.47297525405884 -0.73266631364822
vn 0.15559892356396 0.53842413425446 -0.82818382978439
vn -0.49429556727409 0.46491971611977 -0.73452132940292
vn -0.19463281333447 0.38079652190208 -0.90394252538681
vn -0.16237813234329 0.53629165887833 -0.82826602458954
vn 0.09903287887573 0.38850638270378 -0.91610878705978
vn 0.40701484680176 0.3526691198349 -0.84259325265884
vn 0.7920446395874 0.22837887704372 -0.56613457202911
vn -0.83985906839371 0.26291102170944 -0.47488367557526
vn -0.87078082561493 0.17997512221336 -0.45754745602608
vn -0.51707619428635 0.32378980517387 -0.79233348369598
vn 0.60235244035721 0 -0.79823023080826
vn 0.70710676908493 0 -0.70710676908493
vn 0.48353740572929 0 -0.87532371282578
vn 0.24200615286827 0 -0.97027468681335
vn 0.12100330740213 0 -0.99265211820602
vn -0.13981550931931 0 -0.99017757177353
vn -0.27962917089462 0 -0.96010810136795
vn -0.51729637384415 0 -0.85580629110336
vn -0.61739635467529 0 -0.78665220737457
vn -0.70710676908493 0 -0.70710676908493
vn 0.67151784896851 0 0.74098837375641
vn 0.91226500272751 0 0.40960046648979
vn 0.97880667448044 0 0.20478656888008
vn 0.49729287624359 0 0.86758273839951
vn 0.10769055038691 0 0.99418443441391
vn -0.10765966773033 0 0.99418783187866
vn -0.49725586175919 0 0.86760395765305
vn -0.67148512601852 0 0.74101805686951
vn -0.91226500272751 0 0.40960046648979
vn -0.97880667448044 0 0.20478656888008
vn -0.67148512601852 0 -0.74101805686951
vn -0.80903869867325 0 -0.587755382061
vn -0.49723234772682 0 -0.86761742830276
vn -0.10762543976307 0 -0.99419152736664
vn 0.10765966773033 0 -0.99418783187866
vn 0.49723234772682 0 -0.86761742830276
vn 0.67148512601852 0 -0.74101805686951
vn 0.91226500272751 0 -0.40960046648979
vn 0.97880667448044 0 -0.20478656888008
vn 0 0.9671049118042 -0.25437793135643
vn 0 0.99220365285873 -0.12462702393532
vn 0 0.92418348789215 -0.38194873929024
vn 0 0.82401275634766 -0.56657123565674
vn 0 0.77696025371552 -0.62954968214035
vn 0 0.66050672531128 -0.75082010030746
vn 0 0.58961457014084 -0.80768477916718
vn 0 0.42797350883484 -0.90379130840302
vn 0 0.33644330501556 -0.94170373678207
vn 0 0.24250622093678 -0.97014987468719
# 142 normals

vt 0.65039998292923 0.44609999656677 0
vt 0.66109997034073 0.42510008811951 0
vt 0.65420001745224 0.43370008468628 0
vt 0 0 0
vt 0.65420001745224 0.53690004348755 0
vt 0.65039998292923 0.52450001239777 0
vt 0.68140000104904 0.54820001125336 0
vt 0.68140000104904 0.42239999771118 0
vt 0.66109997034073 0.54550004005432 0
vt 0.5968000292778 0.42869997024536 0
vt 0.62419998645782 0.42280006408691 0
vt 0.59890002012253 0.4190000295639 0
vt 0.62929999828339 0.41110002994537 0
vt 0.63050001859665 0.42239999771118 0
vt 0.61940002441406 0.43110001087189 0
vt 0.59500002861023 0.44490003585815 0
vt 0.61449998617172 0.44340002536774 0
vt 0.59500002861023 0.52340000867844 0
vt 0.61470001935959 0.52189999818802 0
vt 0.60659998655319 0.54750001430511 0
vt 0.61970001459122 0.5343000292778 0
vt 0.62749999761581 0.56360000371933 0
vt 0.62840002775192 0.54830002784729 0
vt 0.64529997110367 0.56300002336502 0
vt 0.63090002536774 0.54390001296997 0
vt 0.62379997968674 0.5343000292778 0
vt 0.61970001459122 0.52189999818802 0
vt 0.61930000782013 0.44340002536774 0
vt 0.62349998950958 0.43099999427795 0
vt 0.63440001010895 0.42239999771118 0
vt 0.63050001859665 0.43099999427795 0
vt 0.62830001115799 0.44340002536774 0
vt 0.64600002765656 0.52180004119873 0
vt 0.63099998235703 0.53420001268387 0
vt 0.64600002765656 0.53420001268387 0
vt 0.62870001792908 0.52180004119873 0
vt 0.64560002088547 0.4433000087738 0
vt 0.64550000429153 0.43089997768402 0
vt 0.64529997110367 0.42200005054474 0
vt 0.63499999046326 0.54280000925064 0
vt 0.64600002765656 0.54269999265671 0
vt 0.61419999599457 0.6506000161171 0
vt 0.58950001001358 0.57440000772476 0
vt 0.58950001001358 0.65410000085831 0
vt 0.65759998559952 0.62020003795624 0
vt 0.63779997825623 0.63920003175735 0
vt 0.67809998989105 0.57440000772476 0
vt 0.67309999465942 0.59600001573563 0
vt 0.5120000243187 0.70359998941422 0
vt 0.46070000529289 0.68000000715256 0
vt 0.46070000529289 0.70359998941422 0
vt 0.5120000243187 0.68000000715256 0
vt 0.5692999958992 0.70359998941422 0
vt 0.56919997930527 0.68000000715256 0
vt 0.61409997940063 0.70359998941422 0
vt 0.61419999599457 0.68000000715256 0
vt 0.64120000600815 0.70359998941422 0
vt 0.64120000600815 0.68000000715256 0
vt 0.6952999830246 0.70359998941422 0
vt 0.6952999830246 0.68000000715256 0
vt 0.21140000224113 0.93959999084473 0
vt 0.21140000224113 0.98909997940063 0
vt 0.21760000288486 0.98909997940063 0
vt 0.02590000070632 0.98909997940063 0
vt 0.01970000006258 0.93959999084473 0
vt 0.01970000006258 0.98909997940063 0
vt 0.02590000070632 0.93959999084473 0
vt 0.21760000288486 0.69980001449585 0
vt 0.21760000288486 0.93959999084473 0
vt 0.01970000006258 0.69980001449585 0
vt 0.87919998168945 0.51899999380112 0
vt 0.88580000400543 0.54800003767014 0
vt 0.90649998188019 0.58020001649857 0
vt 0.71549999713898 0.51899999380112 0
vt 0.69739997386932 0.00419998168945 0
vt 0.69739997386932 0.51899999380112 0
vt 0.71549999713898 0.00419998168945 0
vt 0.99739998579025 0.51899999380112 0
vt 0.99739998579025 0.62540000677109 0
vt 0.93290001153946 0.60550004243851 0
vt 0.96439999341965 0.62070000171661 0
vt 0.99739998579025 0.00419998168945 0
vt 0.70380002260208 0.72290003299713 0
vt 0.26829999685287 0.83650004863739 0
vt 0.70380002260208 0.83650004863739 0
vt 0.26829999685287 0.72290003299713 0
vt 0.99370002746582 0.98159998655319 0
vt 0.8899000287056 0.63190001249313 0
vt 0.8899000287056 0.98159998655319 0
vt 0.99370002746582 0.63190001249313 0
vt 0.74620002508163 0.99330002069473 0
vt 0.8899000287056 0.99330002069473 0
vt 0.73019999265671 0.98669999837875 0
vt 0.72009998559952 0.97649997472763 0
vt 0.8899000287056 0.62020003795624 0
vt 0.72009998559952 0.6370000243187 0
vt 0.73019999265671 0.62680000066757 0
vt 0.74620002508163 0.62020003795624 0
vt 0.71350002288818 0.95929998159409 0
vt 0.71350002288818 0.65160000324249 0
vt 0.68180000782013 0.1279000043869 0
vt 0.68480002880096 0.27359998226166 0
vt 0.68480002880096 0.13460004329681 0
vt 0.67720001935959 0.28600001335144 0
vt 0.68180000782013 0.28140008449554 0
vt 0.6700000166893 0.1204000711441 0
vt 0.67720001935959 0.12339997291565 0
vt 0.55809998512268 0.1204000711441 0
vt 0.55809998512268 0.28900003433228 0
vt 0.6700000166893 0.28900003433228 0
vt -0.14110000431538 0.87569999694824 0
vt -0.22079999744892 0.96429997682571 0
vt -0.14110000431538 0.96429997682571 0
vt -0.18690000474453 0.89620000123978 0
vt -0.20589999854565 0.91589999198914 0
vt -0.21729999780655 0.93949997425079 0
vt -0.16269999742508 0.88059997558594 0
vt 0.52899998426437 0.00960004329681 0
vt 0.54379999637604 0.67019999027252 0
vt 0.54379999637604 0.00960004329681 0
vt 0.52899998426437 0.67019999027252 0
vt 0.50379997491837 0.00960004329681 0
vt 0.50379997491837 0.67019999027252 0
vt 0.05420000106096 0.00960004329681 0
vt 0.05420000106096 0.67019999027252 0
vt 0.03280000016093 0.00960004329681 0
vt 0.03280000016093 0.67019999027252 0
vt 0.01799999922514 0.00960004329681 0
vt 0.01799999922514 0.67019999027252 0
vt 0.56590002775192 0.06970000267029 0
vt 0.65369999408722 0.06239998340607 0
vt 0.56590002775192 0.06239998340607 0
vt 0.65369999408722 0.06970000267029 0
vt 0.56590002775192 0.08160006999969 0
vt 0.65369999408722 0.08160006999969 0
vt 0.56590002775192 0.09340000152588 0
vt 0.65369999408722 0.09340000152588 0
vt 0.56590002775192 0.10080003738403 0
vt 0.65369999408722 0.10080003738403 0
vt 0.56590002775192 0.11330008506775 0
vt 0.65369999408722 0.11330008506775 0
vt 0.56590002775192 0.0188000202179 0
vt 0.65369999408722 0.01150000095367 0
vt 0.56590002775192 0.01150000095367 0
vt 0.65369999408722 0.0188000202179 0
vt 0.56590002775192 0.0307000875473 0
vt 0.65369999408722 0.0307000875473 0
vt 0.56590002775192 0.04260003566742 0
vt 0.65369999408722 0.04260003566742 0
vt 0.56590002775192 0.04990005493164 0
vt 0.65369999408722 0.04990005493164 0
vt 0.26829999685287 0.87279999256134 0
vt 0.70380002260208 0.87279999256134 0
vt 0.26829999685287 0.90399998426437 0
vt 0.70380002260208 0.90399998426437 0
vt 0.26829999685287 0.93099999427795 0
vt 0.70380002260208 0.93099999427795 0
vt 0.26829999685287 0.95279997587204 0
vt 0.70380002260208 0.95279997587204 0
vt 0.26829999685287 0.98189997673035 0
vt 0.70380002260208 0.98189997673035 0
# 161 texture coordinates

o Mesh0
usemtl 4_poster_bed_d_shader
f 1/3/3 2/2/2 3/1/1
f 4/6/6 3/1/1 5/5/5
f 3/1/1 6/7/7 5/5/5
f 2/2/2 6/7/7 3/1/1
f 7/8/8 6/7/7 2/2/2
f 5/5/5 6/7/7 8/9/9
f 9/5/12 10/7/11 11/9/10
f 12/6/14 13/1/13 9/5/12
f 13/1/13 10/7/11 9/5/12
f 14/2/15 10/7/11 13/1/13
f 15/8/16 10/7/11 14/2/15
f 16/3/17 14/2/15 13/1/13
f 17/5/5 18/7/7 19/9/9
f 20/6/6 21/1/1 17/5/5
f 21/1/1 18/7/7 17/5/5
f 22/2/2 18/7/7 21/1/1
f 23/8/8 18/7/7 22/2/2
f 24/3/3 22/2/2 21/1/1
f 25/5/5 26/7/7 27/9/9
f 28/6/6 29/1/1 25/5/5
f 29/1/1 26/7/7 25/5/5
f 30/2/2 26/7/7 29/1/1
f 31/8/8 26/7/7 30/2/2
f 32/3/3 30/2/2 29/1/1
f 33/5/5 34/7/7 35/9/9
f 36/6/6 37/1/1 33/5/5
f 37/1/1 34/7/7 33/5/5
f 38/2/2 34/7/7 37/1/1
f 39/8/8 34/7/7 38/2/2
f 40/3/3 38/2/2 37/1/1
f 41/5/5 42/7/7 43/9/9
f 44/6/6 45/1/1 41/5/5
f 45/1/1 42/7/7 41/5/5
f 46/2/2 42/7/7 45/1/1
f 47/8/8 42/7/7 46/2/2
f 48/3/3 46/2/2 45/1/1
f 49/12/20 50/11/19 51/10/18
f 50/11/19 49/12/20 47/13/21
f 52/14/22 50/11/19 47/13/21
f 50/11/19 52/14/22 53/15/23
f 53/15/23 51/10/18 50/11/19
f 51/10/18 53/15/23 54/16/24
f 55/17/25 54/16/24 53/15/23
f 54/16/24 55/17/25 56/18/26
f 57/19/27 56/18/26 55/17/25
f 56/18/26 57/19/27 58/20/28
f 59/21/29 58/20/28 57/19/27
f 58/20/28 59/21/29 60/22/30
f 61/23/31 60/22/30 59/21/29
f 60/22/30 61/23/31 42/24/32
f 61/23/31 62/25/33 42/24/32
f 62/25/33 61/23/31 63/26/34
f 59/21/29 63/26/34 61/23/31
f 63/26/34 59/21/29 64/27/35
f 57/19/27 64/27/35 59/21/29
f 64/27/35 57/19/27 65/28/36
f 55/17/25 65/28/36 57/19/27
f 65/28/36 55/17/25 66/29/37
f 53/15/23 66/29/37 55/17/25
f 66/29/37 53/15/23 52/14/22
f 52/14/22 67/30/38 66/29/37
f 68/31/39 66/29/37 67/30/38
f 66/29/37 68/31/39 65/28/36
f 69/32/40 65/28/36 68/31/39
f 41/35/43 70/34/42 44/33/41
f 71/36/44 44/33/41 70/34/42
f 44/33/41 71/36/44 45/37/45
f 69/32/40 45/37/45 71/36/44
f 45/37/45 69/32/40 48/38/46
f 68/31/39 48/38/46 69/32/40
f 48/38/46 68/31/39 46/39/47
f 67/30/38 46/39/47 68/31/39
f 46/39/47 67/30/38 47/13/21
f 67/30/38 52/14/22 47/13/21
f 65/28/36 69/32/40 64/27/35
f 71/36/44 64/27/35 69/32/40
f 64/27/35 71/36/44 63/26/34
f 70/34/42 63/26/34 71/36/44
f 63/26/34 70/34/42 62/25/33
f 72/40/48 62/25/33 70/34/42
f 62/25/33 72/40/48 42/24/32
f 72/40/48 43/41/49 42/24/32
f 43/41/49 72/40/48 41/35/43
f 70/34/42 41/35/43 72/40/48
f 73/5/5 74/7/7 75/9/9
f 76/6/6 77/1/1 73/5/5
f 77/1/1 74/7/7 73/5/5
f 78/2/2 74/7/7 77/1/1
f 79/8/8 74/7/7 78/2/2
f 80/3/3 78/2/2 77/1/1
f 81/40/48 75/41/49 74/24/32
f 75/41/49 81/40/48 73/35/43
f 82/23/31 83/22/30 84/21/29
f 83/22/30 82/23/31 74/24/32
f 82/23/31 85/25/33 74/24/32
f 85/25/33 81/40/48 74/24/32
f 81/40/48 85/25/33 86/34/42
f 86/34/42 73/35/43 81/40/48
f 73/35/43 86/34/42 76/33/41
f 87/36/44 76/33/41 86/34/42
f 76/33/41 87/36/44 77/37/45
f 88/32/40 77/37/45 87/36/44
f 89/28/36 90/17/25 91/29/37
f 90/17/25 89/28/36 92/19/27
f 93/27/35 92/19/27 89/28/36
f 92/19/27 93/27/35 84/21/29
f 94/26/34 84/21/29 93/27/35
f 84/21/29 94/26/34 82/23/31
f 85/25/33 82/23/31 94/26/34
f 94/26/34 86/34/42 85/25/33
f 86/34/42 94/26/34 87/36/44
f 93/27/35 87/36/44 94/26/34
f 87/36/44 93/27/35 88/32/40
f 89/28/36 88/32/40 93/27/35
f 88/32/40 89/28/36 95/31/39
f 91/29/37 95/31/39 89/28/36
f 95/31/39 91/29/37 96/30/38
f 97/14/22 96/30/38 91/29/37
f 77/37/45 88/32/40 80/38/46
f 95/31/39 80/38/46 88/32/40
f 80/38/46 95/31/39 78/39/47
f 96/30/38 78/39/47 95/31/39
f 78/39/47 96/30/38 79/13/21
f 96/30/38 97/14/22 79/13/21
f 97/14/22 98/11/19 79/13/21
f 98/11/19 97/14/22 99/15/23
f 91/29/37 99/15/23 97/14/22
f 99/15/23 91/29/37 90/17/25
f 98/11/19 100/12/20 79/13/21
f 100/12/20 98/11/19 101/10/18
f 99/15/23 101/10/18 98/11/19
f 101/10/18 99/15/23 102/16/24
f 90/17/25 102/16/24 99/15/23
f 102/16/24 90/17/25 103/18/26
f 92/19/27 103/18/26 90/17/25
f 103/18/26 92/19/27 104/20/28
f 84/21/29 104/20/28 92/19/27
f 104/20/28 84/21/29 83/22/30
f 105/5/5 106/7/7 107/9/9
f 108/6/6 109/1/1 105/5/5
f 109/1/1 106/7/7 105/5/5
f 110/2/2 106/7/7 109/1/1
f 111/8/8 106/7/7 110/2/2
f 112/3/3 110/2/2 109/1/1
f 113/44/50 114/43/50 115/42/50
f 116/46/50 115/42/50 117/45/50
f 115/42/50 114/43/50 117/45/50
f 114/43/50 118/47/50 117/45/50
f 117/45/50 118/47/50 119/48/50
f 118/51/52 120/50/52 119/49/51
f 121/52/53 119/49/51 120/50/52
f 119/49/51 121/52/53 117/53/54
f 122/54/55 117/53/54 121/52/53
f 117/53/54 122/54/55 116/55/56
f 123/56/57 116/55/56 122/54/55
f 116/55/56 123/56/57 115/57/58
f 124/58/59 115/57/58 123/56/57
f 115/57/58 124/58/59 113/59/60
f 125/60/60 113/59/60 124/58/59
f 126/63/61 127/62/61 128/61/61
f 125/66/61 129/65/61 113/64/61
f 113/64/61 129/65/61 114/67/61
f 114/67/61 129/65/61 130/67/61
f 114/67/61 130/67/61 128/61/61
f 130/67/61 131/68/61 128/61/61
f 131/68/61 126/63/61 128/61/61
f 132/69/62 126/63/61 131/68/61
f 133/70/61 131/68/61 129/65/61
f 129/65/61 131/68/61 130/67/61
f 122/73/63 121/72/63 120/71/63
f 134/76/65 135/75/65 136/74/64
f 137/77/66 136/74/64 135/75/65
f 136/74/64 137/77/66 120/71/63
f 137/77/66 129/78/63 120/71/63
f 129/78/63 125/79/63 120/71/63
f 125/79/63 122/73/63 120/71/63
f 123/80/63 122/73/63 125/79/63
f 124/81/63 123/80/63 125/79/63
f 133/82/63 129/78/63 137/77/66
f 138/85/61 139/84/61 128/83/61
f 114/86/61 128/83/61 139/84/61
f 140/89/67 118/88/67 128/87/67
f 118/88/67 114/90/67 128/87/67
f 141/92/68 142/91/67 140/89/67
f 142/91/67 143/93/67 140/89/67
f 143/93/67 144/94/67 140/89/67
f 144/94/67 118/88/67 140/89/67
f 120/95/67 118/88/67 144/94/67
f 145/96/67 120/95/67 144/94/67
f 134/97/67 120/95/67 145/96/67
f 136/98/67 120/95/67 134/97/67
f 146/100/67 145/96/67 147/99/67
f 147/99/67 145/96/67 144/94/67
f 148/103/1 149/102/1 150/101/1
f 149/102/1 151/104/1 150/101/1
f 152/105/1 151/104/1 149/102/1
f 135/107/1 150/101/1 137/106/1
f 150/101/1 133/108/1 137/106/1
f 151/104/1 133/108/1 150/101/1
f 131/109/1 133/108/1 151/104/1
f 153/110/1 131/109/1 151/104/1
f 128/113/63 127/112/63 140/111/63
f 127/112/63 154/114/63 140/111/63
f 155/115/63 154/114/63 127/112/63
f 156/116/63 155/115/63 127/112/63
f 140/111/63 154/114/63 157/117/63
f 151/75/70 143/76/70 153/77/69
f 142/74/69 153/77/69 143/76/70
f 153/77/69 142/74/69 141/71/50
f 131/82/50 153/77/69 141/71/50
f 132/78/50 131/82/50 141/71/50
f 158/73/50 132/78/50 141/71/50
f 159/81/50 132/78/50 158/73/50
f 160/80/50 159/81/50 158/73/50
f 126/79/50 132/78/50 159/81/50
f 161/72/50 158/73/50 141/71/50
f 141/51/52 140/50/52 161/49/51
f 157/52/53 161/49/51 140/50/52
f 161/49/51 157/52/53 158/53/54
f 154/54/55 158/53/54 157/52/53
f 158/53/54 154/54/55 160/55/56
f 155/56/57 160/55/56 154/54/55
f 160/55/56 155/56/57 159/57/58
f 156/58/59 159/57/58 155/56/57
f 159/57/58 156/58/59 126/59/60
f 127/60/71 126/59/60 156/58/59
f 162/12/74 163/11/73 164/10/72
f 163/11/73 162/12/74 15/13/75
f 163/11/73 165/14/77 166/15/76
f 166/15/76 164/10/72 163/11/73
f 164/10/72 166/15/76 167/16/78
f 168/17/79 167/16/78 166/15/76
f 167/16/78 168/17/79 169/18/80
f 170/19/81 169/18/80 168/17/79
f 169/18/80 170/19/81 171/20/82
f 172/21/83 171/20/82 170/19/81
f 171/20/82 172/21/83 173/22/84
f 174/23/85 173/22/84 172/21/83
f 173/22/84 174/23/85 10/24/86
f 174/23/85 175/25/87 10/24/86
f 175/25/87 174/23/85 176/26/88
f 172/21/83 176/26/88 174/23/85
f 176/26/88 172/21/83 177/27/89
f 170/19/81 177/27/89 172/21/83
f 177/27/89 170/19/81 178/28/90
f 168/17/79 178/28/90 170/19/81
f 178/28/90 168/17/79 179/29/91
f 166/15/76 179/29/91 168/17/79
f 179/29/91 166/15/76 165/14/77
f 165/14/77 180/30/92 179/29/91
f 181/31/93 179/29/91 180/30/92
f 179/29/91 181/31/93 178/28/90
f 182/32/94 178/28/90 181/31/93
f 178/28/90 182/32/94 177/27/89
f 183/36/97 12/33/96 184/34/95
f 12/33/96 183/36/97 13/37/98
f 182/32/94 13/37/98 183/36/97
f 13/37/98 182/32/94 16/38/99
f 181/31/93 16/38/99 182/32/94
f 16/38/99 181/31/93 14/39/100
f 180/30/92 14/39/100 181/31/93
f 14/39/100 180/30/92 15/13/75
f 180/30/92 165/14/77 15/13/75
f 165/14/77 163/11/73 15/13/75
f 183/36/97 177/27/89 182/32/94
f 177/27/89 183/36/97 176/26/88
f 184/34/95 176/26/88 183/36/97
f 176/26/88 184/34/95 175/25/87
f 185/40/101 175/25/87 184/34/95
f 175/25/87 185/40/101 10/24/86
f 185/40/101 11/41/102 10/24/86
f 11/41/102 185/40/101 9/35/103
f 184/34/95 9/35/103 185/40/101
f 9/35/103 184/34/95 12/33/96
f 186/25/33 187/23/31 188/26/34
f 189/21/29 188/26/34 187/23/31
f 188/26/34 189/21/29 190/27/35
f 191/19/27 190/27/35 189/21/29
f 190/27/35 191/19/27 192/28/36
f 193/17/25 192/28/36 191/19/27
f 192/28/36 193/17/25 194/29/37
f 195/15/23 194/29/37 193/17/25
f 194/29/37 195/15/23 196/14/22
f 197/11/19 196/14/22 195/15/23
f 195/15/23 198/10/18 197/11/19
f 199/12/20 197/11/19 198/10/18
f 197/11/19 199/12/20 39/13/21
f 196/14/22 197/11/19 39/13/21
f 200/30/38 196/14/22 39/13/21
f 196/14/22 200/30/38 194/29/37
f 201/31/39 194/29/37 200/30/38
f 194/29/37 201/31/39 192/28/36
f 202/32/40 192/28/36 201/31/39
f 192/28/36 202/32/40 190/27/35
f 203/36/44 36/33/41 204/34/42
f 36/33/41 203/36/44 37/37/45
f 202/32/40 37/37/45 203/36/44
f 37/37/45 202/32/40 40/38/46
f 201/31/39 40/38/46 202/32/40
f 40/38/46 201/31/39 38/39/47
f 200/30/38 38/39/47 201/31/39
f 38/39/47 200/30/38 39/13/21
f 203/36/44 190/27/35 202/32/40
f 190/27/35 203/36/44 188/26/34
f 204/34/42 188/26/34 203/36/44
f 188/26/34 204/34/42 186/25/33
f 205/40/48 186/25/33 204/34/42
f 186/25/33 205/40/48 34/24/32
f 205/40/48 35/41/49 34/24/32
f 35/41/49 205/40/48 33/35/43
f 204/34/42 33/35/43 205/40/48
f 33/35/43 204/34/42 36/33/41
f 187/23/31 186/25/33 34/24/32
f 206/22/30 187/23/31 34/24/32
f 187/23/31 206/22/30 189/21/29
f 207/20/28 189/21/29 206/22/30
f 189/21/29 207/20/28 191/19/27
f 208/18/26 191/19/27 207/20/28
f 191/19/27 208/18/26 193/17/25
f 209/16/24 193/17/25 208/18/26
f 193/17/25 209/16/24 195/15/23
f 198/10/18 195/15/23 209/16/24
f 210/14/22 211/30/38 212/29/37
f 213/31/39 212/29/37 211/30/38
f 212/29/37 213/31/39 214/28/36
f 215/32/40 214/28/36 213/31/39
f 214/28/36 215/32/40 216/27/35
f 217/36/44 216/27/35 215/32/40
f 20/33/41 217/36/44 21/37/45
f 215/32/40 21/37/45 217/36/44
f 21/37/45 215/32/40 24/38/46
f 213/31/39 24/38/46 215/32/40
f 24/38/46 213/31/39 22/39/47
f 211/30/38 22/39/47 213/31/39
f 22/39/47 211/30/38 23/13/21
f 211/30/38 210/14/22 23/13/21
f 210/14/22 218/11/19 23/13/21
f 218/11/19 210/14/22 219/15/23
f 220/12/20 218/11/19 221/10/18
f 218/11/19 220/12/20 23/13/21
f 219/15/23 221/10/18 218/11/19
f 221/10/18 219/15/23 222/16/24
f 223/17/25 222/16/24 219/15/23
f 222/16/24 223/17/25 224/18/26
f 225/19/27 224/18/26 223/17/25
f 224/18/26 225/19/27 226/20/28
f 227/21/29 226/20/28 225/19/27
f 226/20/28 227/21/29 228/22/30
f 229/23/31 228/22/30 227/21/29
f 228/22/30 229/23/31 18/24/32
f 229/23/31 230/25/33 18/24/32
f 230/25/33 229/23/31 231/26/34
f 227/21/29 231/26/34 229/23/31
f 231/26/34 227/21/29 216/27/35
f 225/19/27 216/27/35 227/21/29
f 216/27/35 225/19/27 214/28/36
f 223/17/25 214/28/36 225/19/27
f 214/28/36 223/17/25 212/29/37
f 219/15/23 212/29/37 223/17/25
f 212/29/37 219/15/23 210/14/22
f 216/27/35 217/36/44 231/26/34
f 232/34/42 231/26/34 217/36/44
f 231/26/34 232/34/42 230/25/33
f 233/40/48 230/25/33 232/34/42
f 230/25/33 233/40/48 18/24/32
f 233/40/48 19/41/49 18/24/32
f 19/41/49 233/40/48 17/35/43
f 232/34/42 17/35/43 233/40/48
f 17/35/43 232/34/42 20/33/41
f 217/36/44 20/33/41 232/34/42
f 234/21/29 235/26/34 236/23/31
f 235/26/34 234/21/29 237/27/35
f 238/19/27 237/27/35 234/21/29
f 237/27/35 238/19/27 239/28/36
f 240/17/25 239/28/36 238/19/27
f 239/28/36 240/17/25 241/29/37
f 242/15/23 241/29/37 240/17/25
f 241/29/37 242/15/23 243/14/22
f 243/14/22 244/30/38 241/29/37
f 245/31/39 241/29/37 244/30/38
f 241/29/37 245/31/39 239/28/36
f 246/32/40 239/28/36 245/31/39
f 239/28/36 246/32/40 237/27/35
f 247/36/44 237/27/35 246/32/40
f 237/27/35 247/36/44 235/26/34
f 248/34/42 235/26/34 247/36/44
f 29/37/45 246/32/40 32/38/46
f 245/31/39 32/38/46 246/32/40
f 32/38/46 245/31/39 30/39/47
f 244/30/38 30/39/47 245/31/39
f 30/39/47 244/30/38 31/13/21
f 244/30/38 243/14/22 31/13/21
f 243/14/22 249/11/19 31/13/21
f 249/11/19 243/14/22 242/15/23
f 242/15/23 250/10/18 249/11/19
f 250/10/18 242/15/23 251/16/24
f 252/12/20 249/11/19 250/10/18
f 249/11/19 252/12/20 31/13/21
f 240/17/25 251/16/24 242/15/23
f 251/16/24 240/17/25 253/18/26
f 238/19/27 253/18/26 240/17/25
f 253/18/26 238/19/27 254/20/28
f 234/21/29 254/20/28 238/19/27
f 254/20/28 234/21/29 255/22/30
f 236/23/31 255/22/30 234/21/29
f 255/22/30 236/23/31 26/24/32
f 236/23/31 256/25/33 26/24/32
f 256/25/33 236/23/31 235/26/34
f 235/26/34 248/34/42 256/25/33
f 257/40/48 256/25/33 248/34/42
f 256/25/33 257/40/48 26/24/32
f 257/40/48 27/41/49 26/24/32
f 27/41/49 257/40/48 25/35/43
f 248/34/42 25/35/43 257/40/48
f 25/35/43 248/34/42 28/33/41
f 247/36/44 28/33/41 248/34/42
f 28/33/41 247/36/44 29/37/45
f 246/32/40 29/37/45 247/36/44
f 258/19/27 259/27/35 260/21/29
f 259/27/35 258/19/27 261/28/36
f 262/17/25 261/28/36 258/19/27
f 261/28/36 262/17/25 263/29/37
f 264/15/23 263/29/37 262/17/25
f 263/29/37 264/15/23 265/14/22
f 265/14/22 266/30/38 263/29/37
f 267/31/39 263/29/37 266/30/38
f 263/29/37 267/31/39 261/28/36
f 268/32/40 261/28/36 267/31/39
f 261/28/36 268/32/40 259/27/35
f 269/36/44 259/27/35 268/32/40
f 259/27/35 269/36/44 270/26/34
f 271/34/42 270/26/34 269/36/44
f 270/26/34 271/34/42 272/25/33
f 273/40/48 272/25/33 271/34/42
f 272/25/33 273/40/48 106/24/32
f 273/40/48 107/41/49 106/24/32
f 107/41/49 273/40/48 105/35/43
f 271/34/42 105/35/43 273/40/48
f 105/35/43 271/34/42 108/33/41
f 269/36/44 108/33/41 271/34/42
f 108/33/41 269/36/44 109/37/45
f 268/32/40 109/37/45 269/36/44
f 109/37/45 268/32/40 112/38/46
f 267/31/39 112/38/46 268/32/40
f 112/38/46 267/31/39 110/39/47
f 266/30/38 110/39/47 267/31/39
f 110/39/47 266/30/38 111/13/21
f 266/30/38 265/14/22 111/13/21
f 265/14/22 274/11/19 111/13/21
f 274/11/19 265/14/22 264/15/23
f 264/15/23 275/10/18 274/11/19
f 275/10/18 264/15/23 276/16/24
f 262/17/25 276/16/24 264/15/23
f 276/16/24 262/17/25 277/18/26
f 278/12/20 274/11/19 275/10/18
f 274/11/19 278/12/20 111/13/21
f 258/19/27 277/18/26 262/17/25
f 277/18/26 258/19/27 279/20/28
f 260/21/29 279/20/28 258/19/27
f 279/20/28 260/21/29 280/22/30
f 281/23/31 280/22/30 260/21/29
f 280/22/30 281/23/31 106/24/32
f 281/23/31 272/25/33 106/24/32
f 272/25/33 281/23/31 270/26/34
f 260/21/29 270/26/34 281/23/31
f 270/26/34 260/21/29 259/27/35
f 282/12/20 283/11/19 284/10/18
f 283/11/19 282/12/20 7/13/21
f 285/30/38 286/14/22 7/13/21
f 286/14/22 283/11/19 7/13/21
f 283/11/19 286/14/22 287/15/23
f 287/15/23 284/10/18 283/11/19
f 284/10/18 287/15/23 288/16/24
f 289/17/25 288/16/24 287/15/23
f 288/16/24 289/17/25 290/18/26
f 291/19/27 290/18/26 289/17/25
f 290/18/26 291/19/27 292/20/28
f 293/21/29 292/20/28 291/19/27
f 294/28/36 289/17/25 295/29/37
f 287/15/23 295/29/37 289/17/25
f 295/29/37 287/15/23 286/14/22
f 286/14/22 285/30/38 295/29/37
f 296/31/39 295/29/37 285/30/38
f 295/29/37 296/31/39 294/28/36
f 292/20/28 293/21/29 297/22/30
f 298/23/31 297/22/30 293/21/29
f 297/22/30 298/23/31 6/24/32
f 298/23/31 299/25/33 6/24/32
f 299/25/33 298/23/31 300/26/34
f 293/21/29 300/26/34 298/23/31
f 300/26/34 293/21/29 301/27/35
f 291/19/27 301/27/35 293/21/29
f 301/27/35 291/19/27 294/28/36
f 289/17/25 294/28/36 291/19/27
f 302/32/40 294/28/36 296/31/39
f 294/28/36 302/32/40 301/27/35
f 303/36/44 301/27/35 302/32/40
f 301/27/35 303/36/44 300/26/34
f 304/34/42 300/26/34 303/36/44
f 300/26/34 304/34/42 299/25/33
f 305/40/48 299/25/33 304/34/42
f 299/25/33 305/40/48 6/24/32
f 305/40/48 8/41/49 6/24/32
f 8/41/49 305/40/48 5/35/43
f 304/34/42 5/35/43 305/40/48
f 5/35/43 304/34/42 4/33/41
f 303/36/44 4/33/41 304/34/42
f 4/33/41 303/36/44 3/37/45
f 302/32/40 3/37/45 303/36/44
f 3/37/45 302/32/40 1/38/46
f 296/31/39 1/38/46 302/32/40
f 1/38/46 296/31/39 2/39/47
f 285/30/38 2/39/47 296/31/39
f 2/39/47 285/30/38 7/13/21
f 143/120/105 151/119/105 144/118/104
f 152/121/106 144/118/104 151/119/105
f 144/118/104 152/121/106 147/122/107
f 149/123/108 147/122/107 152/121/106
f 147/122/107 149/123/108 146/124/109
f 148/125/110 146/124/109 149/123/108
f 146/124/109 148/125/110 145/126/111
f 150/127/112 145/126/111 148/125/110
f 145/126/111 150/127/112 134/128/113
f 135/129/113 134/128/113 150/127/112
f 306/132/116 307/131/115 308/130/114
f 309/133/117 308/130/114 307/131/115
f 308/130/114 309/133/117 310/134/118
f 311/135/119 310/134/118 309/133/117
f 310/134/118 311/135/119 312/136/120
f 313/137/121 312/136/120 311/135/119
f 312/136/120 313/137/121 314/138/122
f 315/139/123 314/138/122 313/137/121
f 314/138/122 315/139/123 316/140/63
f 317/141/63 316/140/63 315/139/123
f 316/144/125 317/143/125 318/142/124
f 319/145/126 318/142/124 317/143/125
f 318/142/124 319/145/126 320/146/127
f 321/147/128 320/146/127 319/145/126
f 320/146/127 321/147/128 322/148/129
f 323/149/130 322/148/129 321/147/128
f 322/148/129 323/149/130 324/150/131
f 325/151/132 324/150/131 323/149/130
f 324/150/131 325/151/132 306/132/116
f 307/131/115 306/132/116 325/151/132
f 326/132/116 327/131/115 328/130/114
f 329/133/117 328/130/114 327/131/115
f 328/130/114 329/133/117 330/134/118
f 331/135/119 330/134/118 329/133/117
f 330/134/118 331/135/119 332/136/120
f 333/137/121 332/136/120 331/135/119
f 332/136/120 333/137/121 334/138/122
f 335/139/123 334/138/122 333/137/121
f 334/138/122 335/139/123 336/140/63
f 337/141/63 336/140/63 335/139/123
f 336/144/125 337/143/125 338/142/124
f 339/145/126 338/142/124 337/143/125
f 338/142/124 339/145/126 340/146/127
f 341/147/128 340/146/127 339/145/126
f 340/146/127 341/147/128 342/148/129
f 343/149/130 342/148/129 341/147/128
f 342/148/129 343/149/130 344/150/131
f 345/151/132 344/150/131 343/149/130
f 344/150/131 345/151/132 326/132/116
f 327/131/115 326/132/116 345/151/132
f 139/84/134 138/85/134 346/152/133
f 347/153/135 346/152/133 138/85/134
f 346/152/133 347/153/135 348/154/136
f 349/155/137 348/154/136 347/153/135
f 348/154/136 349/155/137 350/156/138
f 351/157/139 350/156/138 349/155/137
f 350/156/138 351/157/139 352/158/140
f 353/159/141 352/158/140 351/157/139
f 352/158/140 353/159/141 354/160/142
f 355/161/142 354/160/142 353/159/141
f 356/132/116 357/131/115 358/130/114
f 359/133/117 358/130/114 357/131/115
f 358/130/114 359/133/117 360/134/118
f 361/135/119 360/134/118 359/133/117
f 360/134/118 361/135/119 362/136/120
f 363/137/121 362/136/120 361/135/119
f 362/136/120 363/137/121 364/138/122
f 365/139/123 364/138/122 363/137/121
f 364/138/122 365/139/123 366/140/63
f 367/141/63 366/140/63 365/139/123
f 366/144/125 367/143/125 368/142/124
f 369/145/126 368/142/124 367/143/125
f 368/142/124 369/145/126 370/146/127
f 371/147/128 370/146/127 369/145/126
f 370/146/127 371/147/128 372/148/129
f 373/149/130 372/148/129 371/147/128
f 372/148/129 373/149/130 374/150/131
f 375/151/132 374/150/131 373/149/130
f 374/150/131 375/151/132 356/132/116
f 357/131/115 356/132/116 375/151/132
f 376/132/116 377/131/115 378/130/114
f 379/133/117 378/130/114 377/131/115
f 378/130/114 379/133/117 380/134/118
f 381/135/119 380/134/118 379/133/117
f 380/134/118 381/135/119 382/136/120
f 383/137/121 382/136/120 381/135/119
f 382/136/120 383/137/121 384/138/122
f 385/139/123 384/138/122 383/137/121
f 384/138/122 385/139/123 386/140/63
f 387/141/63 386/140/63 385/139/123
f 386/144/125 387/143/125 388/142/124
f 389/145/126 388/142/124 387/143/125
f 388/142/124 389/145/126 390/146/127
f 391/147/128 390/146/127 389/145/126
f 390/146/127 391/147/128 392/148/129
f 393/149/130 392/148/129 391/147/128
f 392/148/129 393/149/130 394/150/131
f 395/151/132 394/150/131 393/149/130
f 394/150/131 395/151/132 376/132/116
f 377/131/115 376/132/116 395/151/132

