# Blender v2.78 (sub 0) OBJ File: 'TranslationGizmo.blend'
# www.blender.org
mtllib TranslationGizmo.mtl
o origin_Cube.001
v 0.200000 -0.200000 -0.200000
v 0.200000 -0.200000 0.200000
v -0.200000 -0.200000 0.200000
v -0.200000 -0.200000 -0.200000
v 0.200000 0.200000 -0.200000
v 0.200000 0.200000 0.200000
v -0.200000 0.200000 0.200000
v -0.200000 0.200000 -0.200000
vt 0.2003 0.2474
vt 0.0151 0.1999
vt 0.7749 0.0147
vt 0.9601 0.0622
vt 0.2003 0.2474
vt 0.0151 0.1999
vt 0.7749 0.0147
vt 0.9601 0.0622
vt 0.0151 0.1999
vt 0.7749 0.0147
vt 0.9601 0.0622
vt 0.2003 0.2474
vt 0.0151 0.1999
vt 0.9601 0.0622
vt 0.2003 0.2474
vt 0.0151 0.1999
vt 0.7749 0.0147
vt 0.0151 0.1999
vt 0.7749 0.0147
vt 0.9601 0.0622
vn 0.0000 -1.0000 -0.0000
vn 0.0000 1.0000 0.0000
vn 1.0000 0.0000 0.0000
vn -0.0000 -0.0000 1.0000
vn -1.0000 -0.0000 -0.0000
vn 0.0000 0.0000 -1.0000
usemtl None
s off
f 1/1/1 2/2/1 3/3/1 4/4/1
f 5/5/2 8/6/2 7/7/2 6/8/2
f 1/1/3 5/9/3 6/10/3 2/11/3
f 2/12/4 6/13/4 7/7/4 3/14/4
f 3/15/5 7/16/5 8/17/5 4/4/5
f 5/5/6 1/18/6 4/19/6 8/20/6
o z_Cube.003
v 0.250000 0.250316 3.153568
v 0.250000 -0.249684 3.153568
v -0.250000 -0.249684 3.153568
v -0.250000 0.250316 3.153568
v -0.000000 0.000316 3.653568
v -0.149999 0.000316 3.205663
v -0.150001 0.000316 0.191911
v -0.138581 -0.057087 3.205663
v -0.138583 -0.057087 0.191911
v -0.106065 -0.105750 3.205663
v -0.106067 -0.105750 0.191911
v -0.057401 -0.138266 3.205663
v -0.057404 -0.138266 0.191911
v 0.000001 -0.149684 3.205663
v -0.000001 -0.149684 0.191911
v 0.057404 -0.138266 3.205663
v 0.057401 -0.138266 0.191911
v 0.106067 -0.105750 3.205663
v 0.106065 -0.105750 0.191911
v 0.138583 -0.057087 3.205663
v 0.138581 -0.057087 0.191911
v 0.150001 0.000316 3.205663
v 0.149999 0.000316 0.191911
v 0.138583 0.057718 3.205663
v 0.138581 0.057718 0.191911
v 0.106067 0.106382 3.205663
v 0.106065 0.106382 0.191911
v 0.057404 0.138898 3.205663
v 0.057401 0.138898 0.191911
v 0.000001 0.150316 3.205663
v -0.000001 0.150316 0.191911
v -0.057401 0.138898 3.205663
v -0.057404 0.138898 0.191911
v -0.106065 0.106382 3.205663
v -0.106067 0.106382 0.191911
v -0.138581 0.057718 3.205663
v -0.138583 0.057718 0.191911
v 0.057404 0.138898 3.205663
v 0.057401 0.138898 0.191911
vt 0.3233 0.7510
vt 0.1547 0.7214
vt 0.6271 0.5529
vt 0.7957 0.5824
vt 0.4122 0.6318
vt 0.5302 0.6627
vt 0.5646 0.6460
vt 0.3209 0.6696
vt 0.5959 0.6266
vt 0.2574 0.7023
vt 0.5943 0.6155
vt 0.2327 0.7264
vt 0.5608 0.6152
vt 0.2497 0.7381
vt 0.5019 0.6258
vt 0.3046 0.7356
vt 0.4287 0.6454
vt 0.3871 0.7198
vt 0.3546 0.6708
vt 0.4827 0.6935
vt 0.2930 0.6975
vt 0.5742 0.6614
vt 0.2552 0.7210
vt 0.6449 0.6294
vt 0.2807 0.7219
vt 0.6816 0.6032
vt 0.3253 0.7154
vt 0.6911 0.5855
vt 0.3577 0.7005
vt 0.6783 0.5761
vt 0.3807 0.7008
vt 0.6790 0.5620
vt 0.4269 0.6941
vt 0.6488 0.5567
vt 0.5254 0.5925
vt 0.4808 0.6800
vt 0.1547 0.7214
vt 0.6271 0.5529
vt 0.3233 0.7510
vt 0.3233 0.7510
vt 0.6271 0.5529
vt 0.3233 0.7510
vt 0.1547 0.7214
vn 0.0000 0.0000 -1.0000
vn -0.9808 -0.1951 0.0000
vn -0.8315 -0.5556 0.0000
vn -0.5556 -0.8315 0.0000
vn -0.1951 -0.9808 0.0000
vn 0.1951 -0.9808 -0.0000
vn 0.5556 -0.8315 -0.0000
vn 0.8315 -0.5556 -0.0000
vn 0.9808 -0.1951 -0.0000
vn 0.9808 0.1951 -0.0000
vn 0.8315 0.5556 -0.0000
vn 0.5556 0.8315 -0.0000
vn 0.1951 0.9808 -0.0000
vn -0.1951 0.9808 0.0000
vn -0.5556 0.8315 0.0000
vn -0.9808 0.1951 0.0000
vn -0.8315 0.5556 0.0000
vn 0.8944 0.0000 0.4472
vn 0.0000 -0.8944 0.4472
vn -0.8944 0.0000 0.4472
vn 0.0000 0.8944 0.4472
usemtl None
s off
f 9/21/7 10/22/7 11/23/7 12/24/7
f 14/25/8 15/26/8 17/27/8 16/28/8
f 16/28/9 17/27/9 19/29/9 18/30/9
f 18/30/10 19/29/10 21/31/10 20/32/10
f 20/32/11 21/31/11 23/33/11 22/34/11
f 22/34/12 23/33/12 25/35/12 24/36/12
f 24/36/13 25/35/13 27/37/13 26/38/13
f 26/38/14 27/37/14 29/39/14 28/40/14
f 28/40/15 29/39/15 31/41/15 30/42/15
f 30/42/16 31/41/16 33/43/16 32/44/16
f 32/44/17 33/43/17 35/45/17 34/46/17
f 34/46/18 35/45/18 37/47/18 36/48/18
f 36/48/19 37/47/19 39/49/19 38/50/19
f 38/50/20 39/49/20 41/51/20 40/52/20
f 40/52/21 41/51/21 43/53/21 42/54/21
f 44/55/22 45/56/22 15/26/22 14/25/22
f 42/54/23 43/53/23 45/56/23 44/55/23
f 9/21/24 13/57/24 10/58/24
f 10/59/25 13/57/25 11/23/25
f 11/60/26 13/57/26 12/61/26
f 13/62/27 9/63/27 12/61/27
l 47 46
o x_Cube.004
v 3.163280 0.250316 -0.253435
v 3.163280 -0.249684 -0.253435
v 3.163280 -0.249684 0.246565
v 3.163280 0.250316 0.246565
v 3.663280 0.000316 -0.003435
v 3.215376 0.000317 0.146564
v 0.201624 0.000315 0.146567
v 3.215376 -0.057086 0.135146
v 0.201624 -0.057088 0.135148
v 3.215376 -0.105749 0.102630
v 0.201624 -0.105751 0.102633
v 3.215376 -0.138265 0.053967
v 0.201624 -0.138267 0.053969
v 3.215376 -0.149683 -0.003436
v 0.201624 -0.149685 -0.003433
v 3.215376 -0.138265 -0.060838
v 0.201623 -0.138267 -0.060836
v 3.215376 -0.105749 -0.109502
v 0.201623 -0.105751 -0.109499
v 3.215376 -0.057086 -0.142018
v 0.201623 -0.057088 -0.142015
v 3.215376 0.000317 -0.153436
v 0.201623 0.000315 -0.153433
v 3.215376 0.057719 -0.142018
v 0.201623 0.057717 -0.142015
v 3.215376 0.106383 -0.109502
v 0.201623 0.106381 -0.109500
v 3.215376 0.138899 -0.060838
v 0.201623 0.138897 -0.060836
v 3.215376 0.150317 -0.003436
v 0.201623 0.150315 -0.003433
v 3.215376 0.138899 0.053967
v 0.201623 0.138897 0.053969
v 3.215376 0.106383 0.102630
v 0.201623 0.106381 0.102633
v 3.215376 0.057719 0.135146
v 0.201624 0.057717 0.135149
v 3.215376 0.138899 -0.060838
v 0.201623 0.138897 -0.060836
vt 0.1773 0.4975
vt 0.0477 0.4522
vt 0.7731 0.3226
vt 0.9027 0.3680
vt 0.1325 0.4526
vt 0.7665 0.3693
vt 0.7624 0.3593
vt 0.1008 0.4707
vt 0.7260 0.3549
vt 0.1258 0.4795
vt 0.6479 0.3595
vt 0.2044 0.4778
vt 0.5403 0.3723
vt 0.3241 0.4660
vt 0.4215 0.3914
vt 0.4666 0.4457
vt 0.3108 0.4134
vt 0.6105 0.4202
vt 0.2255 0.4348
vt 0.7345 0.3930
vt 0.1783 0.4525
vt 0.8192 0.3683
vt 0.1758 0.4638
vt 0.8513 0.3501
vt 0.2185 0.4671
vt 0.8256 0.3411
vt 0.3000 0.4618
vt 0.7461 0.3427
vt 0.4085 0.4487
vt 0.6254 0.3548
vt 0.5276 0.4297
vt 0.4822 0.3753
vt 0.6384 0.4078
vt 0.3386 0.4010
vt 0.2160 0.4282
vt 0.7230 0.3865
vt 0.0477 0.4522
vt 0.7731 0.3226
vt 0.1773 0.4975
vt 0.1773 0.4975
vt 0.7731 0.3226
vt 0.1773 0.4975
vt 0.0477 0.4522
vn -1.0000 0.0000 0.0000
vn 0.0000 -0.1951 0.9808
vn 0.0000 -0.5556 0.8315
vn 0.0000 -0.8315 0.5556
vn 0.0000 -0.9808 0.1951
vn 0.0000 -0.9808 -0.1951
vn 0.0000 -0.8315 -0.5556
vn -0.0000 -0.5556 -0.8315
vn -0.0000 -0.1951 -0.9808
vn -0.0000 0.1951 -0.9808
vn -0.0000 0.5556 -0.8315
vn -0.0000 0.8315 -0.5556
vn -0.0000 0.9808 -0.1951
vn -0.0000 0.9808 0.1951
vn -0.0000 0.8315 0.5556
vn 0.0000 0.1951 0.9808
vn 0.0000 0.5556 0.8315
vn 0.4472 0.0000 -0.8944
vn 0.4472 -0.8944 0.0000
vn 0.4472 0.0000 0.8944
vn 0.4472 0.8944 -0.0000
usemtl None
s off
f 48/64/28 49/65/28 50/66/28 51/67/28
f 53/68/29 54/69/29 56/70/29 55/71/29
f 55/71/30 56/70/30 58/72/30 57/73/30
f 57/73/31 58/72/31 60/74/31 59/75/31
f 59/75/32 60/74/32 62/76/32 61/77/32
f 61/77/33 62/76/33 64/78/33 63/79/33
f 63/79/34 64/78/34 66/80/34 65/81/34
f 65/81/35 66/80/35 68/82/35 67/83/35
f 67/83/36 68/82/36 70/84/36 69/85/36
f 69/85/37 70/84/37 72/86/37 71/87/37
f 71/87/38 72/86/38 74/88/38 73/89/38
f 73/89/39 74/88/39 76/90/39 75/91/39
f 75/91/40 76/90/40 78/92/40 77/93/40
f 77/93/41 78/92/41 80/94/41 79/95/41
f 79/95/42 80/94/42 82/96/42 81/97/42
f 83/98/43 84/99/43 54/69/43 53/68/43
f 81/97/44 82/96/44 84/99/44 83/98/44
f 48/64/45 52/100/45 49/101/45
f 49/102/46 52/100/46 50/66/46
f 50/103/47 52/100/47 51/104/47
f 52/105/48 48/106/48 51/104/48
l 86 85
o y_Cylinder.002
v -0.149999 3.213752 -0.000001
v -0.150001 0.200000 0.000001
v -0.138581 3.213752 0.057402
v -0.138583 0.200000 0.057403
v -0.106065 3.213752 0.106065
v -0.106067 0.200000 0.106067
v -0.057401 3.213752 0.138581
v -0.057404 0.200000 0.138583
v 0.000001 3.213752 0.149999
v -0.000001 0.200000 0.150001
v 0.057404 3.213753 0.138581
v 0.057401 0.200000 0.138583
v 0.106067 3.213753 0.106065
v 0.106065 0.200000 0.106067
v 0.138583 3.213752 0.057402
v 0.138581 0.200000 0.057403
v 0.150001 3.213752 -0.000001
v 0.149999 0.200000 0.000001
v 0.138583 3.213753 -0.057403
v 0.138581 0.200000 -0.057402
v 0.106067 3.213753 -0.106067
v 0.106065 0.200000 -0.106065
v 0.057404 3.213752 -0.138583
v 0.057401 0.200000 -0.138581
v 0.000001 3.213752 -0.150001
v -0.000001 0.200000 -0.149999
v -0.057401 3.213753 -0.138583
v -0.057404 0.200000 -0.138581
v -0.106065 3.213753 -0.106067
v -0.106067 0.200000 -0.106065
v -0.138581 3.213752 -0.057403
v -0.138583 0.200000 -0.057402
v 0.057404 3.213752 -0.138583
v 0.057401 0.200000 -0.138581
v 0.250000 3.161657 -0.250000
v 0.250000 3.161657 0.250000
v -0.250000 3.161657 0.250000
v -0.250000 3.161657 -0.250000
v -0.000000 3.661657 0.000000
vt 0.4674 0.8451
vt 0.4828 0.7754
vt 0.5214 0.7915
vt 0.4801 0.8499
vt 0.5508 0.8213
vt 0.4901 0.8595
vt 0.5666 0.8600
vt 0.4958 0.8723
vt 0.5666 0.9019
vt 0.4962 0.8866
vt 0.5509 0.9407
vt 0.4912 0.9000
vt 0.5217 0.9707
vt 0.4824 0.9106
vt 0.4831 0.9871
vt 0.4701 0.9167
vt 0.4411 0.9873
vt 0.4565 0.9174
vt 0.4023 0.9712
vt 0.4436 0.9126
vt 0.3727 0.9414
vt 0.4335 0.9031
vt 0.3568 0.9025
vt 0.4278 0.8902
vt 0.3569 0.8605
vt 0.4274 0.8760
vt 0.3728 0.8217
vt 0.4324 0.8626
vt 0.4023 0.7918
vt 0.4416 0.8520
vt 0.4539 0.8458
vt 0.4409 0.7754
vt 0.3568 0.7753
vt 0.5688 0.7753
vt 0.5688 0.9873
vt 0.3568 0.9873
vt 0.5688 0.7753
vt 0.5688 0.9873
vt 0.3568 0.7753
vt 0.3568 0.7753
vt 0.5688 0.9873
vt 0.3568 0.7753
vt 0.5688 0.7753
vn -0.9808 0.0000 0.1951
vn -0.8315 0.0000 0.5556
vn -0.5556 0.0000 0.8315
vn -0.1951 0.0000 0.9808
vn 0.1951 0.0000 0.9808
vn 0.5556 0.0000 0.8315
vn 0.8315 -0.0000 0.5556
vn 0.9808 -0.0000 0.1951
vn 0.9808 -0.0000 -0.1951
vn 0.8315 -0.0000 -0.5556
vn 0.5556 -0.0000 -0.8315
vn 0.1951 -0.0000 -0.9808
vn -0.1951 -0.0000 -0.9808
vn -0.5556 -0.0000 -0.8315
vn -0.9808 0.0000 -0.1951
vn -0.8315 0.0000 -0.5556
vn 0.0000 -1.0000 0.0000
vn 0.8944 0.4472 0.0000
vn 0.0000 0.4472 0.8944
vn -0.8944 0.4472 0.0000
vn 0.0000 0.4472 -0.8944
usemtl None
s off
f 87/107/49 88/108/49 90/109/49 89/110/49
f 89/110/50 90/109/50 92/111/50 91/112/50
f 91/112/51 92/111/51 94/113/51 93/114/51
f 93/114/52 94/113/52 96/115/52 95/116/52
f 95/116/53 96/115/53 98/117/53 97/118/53
f 97/118/54 98/117/54 100/119/54 99/120/54
f 99/120/55 100/119/55 102/121/55 101/122/55
f 101/122/56 102/121/56 104/123/56 103/124/56
f 103/124/57 104/123/57 106/125/57 105/126/57
f 105/126/58 106/125/58 108/127/58 107/128/58
f 107/128/59 108/127/59 110/129/59 109/130/59
f 109/130/60 110/129/60 112/131/60 111/132/60
f 111/132/61 112/131/61 114/133/61 113/134/61
f 113/134/62 114/133/62 116/135/62 115/136/62
f 117/137/63 118/138/63 88/108/63 87/107/63
f 115/136/64 116/135/64 118/138/64 117/137/64
f 121/139/65 122/140/65 123/141/65 124/142/65
f 121/139/66 125/143/66 122/144/66
f 122/145/67 125/143/67 123/141/67
f 123/146/68 125/143/68 124/147/68
f 125/148/69 121/149/69 124/147/69
l 120 119
